\BOOKMARK [1][-]{section.1}{System}{}% 1
\BOOKMARK [1][-]{section.2}{Dynamic modeling}{}% 2
\BOOKMARK [1][-]{section.3}{Optimization problem with quadratic programming \(including generalized accelerations\)}{}% 3
\BOOKMARK [2][-]{subsection.3.1}{Problem formulation}{section.3}% 4
\BOOKMARK [2][-]{subsection.3.2}{Transformation of the cost function}{section.3}% 5
\BOOKMARK [2][-]{subsection.3.3}{Transformation of the constraints}{section.3}% 6
\BOOKMARK [2][-]{subsection.3.4}{Simulation}{section.3}% 7
\BOOKMARK [3][-]{subsubsection.3.4.1}{Set up}{subsection.3.4}% 8
\BOOKMARK [3][-]{subsubsection.3.4.2}{Results}{subsection.3.4}% 9
\BOOKMARK [1][-]{section.4}{Optimization problem with quadratic programming \(NOT including generalized accelerations\)}{}% 10
\BOOKMARK [2][-]{subsection.4.1}{Problem formulation}{section.4}% 11
\BOOKMARK [2][-]{subsection.4.2}{Transformation of the cost function}{section.4}% 12
\BOOKMARK [2][-]{subsection.4.3}{Transformation of the constraints}{section.4}% 13
\BOOKMARK [2][-]{subsection.4.4}{Simulation}{section.4}% 14
\BOOKMARK [3][-]{subsubsection.4.4.1}{Set up}{subsection.4.4}% 15
\BOOKMARK [3][-]{subsubsection.4.4.2}{Results}{subsection.4.4}% 16
\BOOKMARK [1][-]{section.5}{Appendix}{}% 17
\BOOKMARK [2][-]{subsection.5.1}{Part physical properties}{section.5}% 18
