\relax 
\providecommand\hyper@newdestlabel[2]{}
\providecommand\zref@newlabel[2]{}
\providecommand\HyperFirstAtBeginDocument{\AtBeginDocument}
\HyperFirstAtBeginDocument{\ifx\hyper@anchor\@undefined
\global\let\oldcontentsline\contentsline
\gdef\contentsline#1#2#3#4{\oldcontentsline{#1}{#2}{#3}}
\global\let\oldnewlabel\newlabel
\gdef\newlabel#1#2{\newlabelxx{#1}#2}
\gdef\newlabelxx#1#2#3#4#5#6{\oldnewlabel{#1}{{#2}{#3}}}
\AtEndDocument{\ifx\hyper@anchor\@undefined
\let\contentsline\oldcontentsline
\let\newlabel\oldnewlabel
\fi}
\fi}
\global\let\hyper@last\relax 
\gdef\HyperFirstAtBeginDocument#1{#1}
\providecommand\HyField@AuxAddToFields[1]{}
\providecommand\HyField@AuxAddToCoFields[2]{}
\citation{huntcrossleyopensim}
\@writefile{toc}{\contentsline {section}{\numberline {1}System}{1}{section.1}}
\newlabel{eq:propotionalActuator}{{1}{1}{System}{equation.1.1}{}}
\@writefile{toc}{\contentsline {section}{\numberline {2}Dynamic modeling}{1}{section.2}}
\newlabel{eq:dynamic}{{2}{1}{Dynamic modeling}{equation.2.2}{}}
\newlabel{eq:qpActForce}{{3}{1}{Dynamic modeling}{equation.2.3}{}}
\@writefile{lof}{\contentsline {figure}{\numberline {1}{\ignorespaces Studied system consisting of two rigid links connected to each other by a revolute joint. They are actuated by path actuators which can wrap around cylinders at the joints.\relax }}{2}{figure.caption.1}}
\providecommand*\caption@xref[2]{\@setref\relax\@undefined{#1}}
\newlabel{fig:twolinkspathacts}{{1}{2}{Studied system consisting of two rigid links connected to each other by a revolute joint. They are actuated by path actuators which can wrap around cylinders at the joints.\relax }{figure.caption.1}{}}
\@writefile{lof}{\contentsline {figure}{\numberline {2}{\ignorespaces Four contact squares based on Hunt-Crossley model\relax }}{2}{figure.caption.2}}
\newlabel{fig:foot}{{2}{2}{Four contact squares based on Hunt-Crossley model\relax }{figure.caption.2}{}}
\@writefile{toc}{\contentsline {section}{\numberline {3}Optimization problem with quadratic programming (including generalized accelerations)}{3}{section.3}}
\@writefile{toc}{\contentsline {subsection}{\numberline {3.1}Problem formulation}{3}{subsection.3.1}}
\newlabel{eq:qpAcc}{{4}{3}{Problem formulation}{equation.3.4}{}}
\newlabel{eq:PDcontroller}{{5}{3}{Problem formulation}{equation.3.5}{}}
\newlabel{eq:gains}{{6}{3}{Problem formulation}{equation.3.6}{}}
\newlabel{eq:optProbCurrentWork}{{7}{3}{Problem formulation}{equation.3.7}{}}
\@writefile{toc}{\contentsline {subsection}{\numberline {3.2}Transformation of the cost function}{3}{subsection.3.2}}
\newlabel{eq:qpProblem}{{8}{3}{Transformation of the cost function}{equation.3.8}{}}
\newlabel{eq:qpP}{{9}{3}{Transformation of the cost function}{equation.3.9}{}}
\newlabel{eq:qpk}{{10}{4}{Transformation of the cost function}{equation.3.10}{}}
\newlabel{eq:qpH}{{11}{4}{Transformation of the cost function}{equation.3.11}{}}
\newlabel{eq:qpG}{{12}{4}{Transformation of the cost function}{equation.3.12}{}}
\@writefile{toc}{\contentsline {subsection}{\numberline {3.3}Transformation of the constraints}{4}{subsection.3.3}}
\@writefile{toc}{\contentsline {paragraph}{Generalized acceleration boundaries}{4}{section*.3}}
\@writefile{toc}{\contentsline {paragraph}{Actuator control input boundaries}{4}{section*.4}}
\@writefile{toc}{\contentsline {paragraph}{Contact force boundaries}{4}{section*.5}}
\@writefile{toc}{\contentsline {subsection}{\numberline {3.4}Simulation}{4}{subsection.3.4}}
\@writefile{toc}{\contentsline {subsubsection}{\numberline {3.4.1}Set up}{4}{subsubsection.3.4.1}}
\@writefile{toc}{\contentsline {paragraph}{Actuators}{4}{section*.6}}
\@writefile{toc}{\contentsline {paragraph}{Controler}{4}{section*.7}}
\@writefile{toc}{\contentsline {paragraph}{Regulation term of the cost function}{5}{section*.8}}
\@writefile{toc}{\contentsline {paragraph}{Initial conditions}{5}{section*.9}}
\@writefile{toc}{\contentsline {paragraph}{Destination point}{5}{section*.10}}
\@writefile{toc}{\contentsline {subsubsection}{\numberline {3.4.2}Results}{5}{subsubsection.3.4.2}}
\@writefile{toc}{\contentsline {section}{\numberline {4}Optimization problem with quadratic programming (NOT including generalized accelerations)}{5}{section.4}}
\@writefile{toc}{\contentsline {subsection}{\numberline {4.1}Problem formulation}{5}{subsection.4.1}}
\newlabel{eq:optProbCurrentWork}{{13}{5}{Problem formulation}{equation.4.13}{}}
\@writefile{toc}{\contentsline {subsection}{\numberline {4.2}Transformation of the cost function}{5}{subsection.4.2}}
\newlabel{eq:qpProblem}{{14}{5}{Transformation of the cost function}{equation.4.14}{}}
\newlabel{eq:qpP}{{15}{5}{Transformation of the cost function}{equation.4.15}{}}
\newlabel{eq:qpk}{{16}{6}{Transformation of the cost function}{equation.4.16}{}}
\newlabel{eq:qpH}{{17}{6}{Transformation of the cost function}{equation.4.17}{}}
\newlabel{eq:qpG}{{18}{6}{Transformation of the cost function}{equation.4.18}{}}
\@writefile{toc}{\contentsline {subsection}{\numberline {4.3}Transformation of the constraints}{6}{subsection.4.3}}
\@writefile{toc}{\contentsline {paragraph}{Actuator control input boundaries}{6}{section*.11}}
\@writefile{toc}{\contentsline {paragraph}{Contact force boundaries}{6}{section*.12}}
\@writefile{toc}{\contentsline {subsection}{\numberline {4.4}Simulation}{6}{subsection.4.4}}
\@writefile{toc}{\contentsline {subsubsection}{\numberline {4.4.1}Set up}{6}{subsubsection.4.4.1}}
\@writefile{toc}{\contentsline {paragraph}{Actuators}{6}{section*.13}}
\@writefile{toc}{\contentsline {paragraph}{Controler}{6}{section*.14}}
\@writefile{toc}{\contentsline {paragraph}{Regulation term of the cost function}{6}{section*.15}}
\@writefile{toc}{\contentsline {paragraph}{Initial conditions}{7}{section*.16}}
\@writefile{toc}{\contentsline {paragraph}{Destination point}{7}{section*.17}}
\@writefile{toc}{\contentsline {subsubsection}{\numberline {4.4.2}Results}{7}{subsubsection.4.4.2}}
\@writefile{lof}{\contentsline {figure}{\numberline {3}{\ignorespaces Optimization results with qpOASES\relax }}{7}{figure.caption.18}}
\newlabel{fig:test1}{{3}{7}{Optimization results with qpOASES\relax }{figure.caption.18}{}}
\bibstyle{unsrt}
\bibdata{mybib}
\bibcite{huntcrossleyopensim}{1}
\@writefile{lof}{\contentsline {figure}{\numberline {4}{\ignorespaces Tracking position with qpOASES\relax }}{8}{figure.caption.19}}
\newlabel{fig:test1}{{4}{8}{Tracking position with qpOASES\relax }{figure.caption.19}{}}
\@writefile{toc}{\contentsline {section}{\numberline {5}Appendix}{8}{section.5}}
\@writefile{toc}{\contentsline {subsection}{\numberline {5.1}Part physical properties}{8}{subsection.5.1}}
