-0	0	0	0	-0	0	
-9.44681e-05	3.27991e-05	0	-0.00274632	-0	0	
-0.000188936	6.55982e-05	0	-0.00549265	-0	0	
-0.000283404	9.83973e-05	0	-0.00823897	-0	0	
-0.000377872	0.000131196	0	-0.0109853	-0	0	
-0.00047234	0.000163995	0	-0.0137316	-0	0	
-0.000566809	0.000196795	0	-0.0164779	-0	0	
-0.000661277	0.000229594	0	-0.0192243	-0	0	
-0.000755745	0.000262393	0	-0.0219706	-0	0	
-0.000850213	0.000295192	0	-0.0247169	-0	0	
-0.000944681	0.000327991	0	-0.0274632	-0	0	
-0.00103915	0.00036079	0	-0.0302096	-0	0	
-0.00113362	0.000393589	0	-0.0329559	-0	0	
-0.00122809	0.000426388	0	-0.0357022	-0	0	
-0.00132255	0.000459187	0	-0.0384485	-0	0	
-0.00141702	0.000491986	0	-0.0411948	-0	0	
-0.00151149	0.000524785	0	-0.0439412	-0	0	
-0.00160596	0.000557585	0	-0.0466875	-0	0	
-0.00170043	0.000590384	0	-0.0494338	-0	0	
-0.00179489	0.000623183	0	-0.0521801	-0	0	
-0.00188936	0.000655982	0	-0.0549265	-0	0	
-0.00198383	0.000688781	0	-0.0576728	-0	0	
-0.0020783	0.00072158	0	-0.0604191	-0	0	
-0.00217277	0.000754379	0	-0.0631654	-0	0	
-0.00226723	0.000787178	0	-0.0659118	-0	0	
-0.0023617	0.000819977	0	-0.0686581	-0	0	
-0.00245617	0.000852776	0	-0.0714044	-0	0	
-0.00255064	0.000885575	0	-0.0741507	-0	0	
-0.00264511	0.000918375	0	-0.076897	-0	0	
-0.00273957	0.000951174	0	-0.0796434	-0	0	
-0.00283404	0.000983973	0	-0.0823897	-0	0	
-0.00292851	0.00101677	0	-0.085136	-0	0	
-0.00302298	0.00104957	0	-0.0878823	-0	0	
-0.00311745	0.00108237	0	-0.0906287	-0	0	
-0.00321191	0.00111517	0	-0.093375	-0	0	
-0.00330638	0.00114797	0	-0.0961213	-0	0	
-0.00340085	0.00118077	0	-0.0988676	-0	0	
-0.00349532	0.00121357	0	-0.101614	-0	0	
-0.00358979	0.00124637	0	-0.10436	-0	0	
-0.00368426	0.00127916	0	-0.107107	-0	0	
-0.00377872	0.00131196	0	-0.109853	-0	0	
-0.00387319	0.00134476	0	-0.112599	-0	0	
-0.00396766	0.00137756	0	-0.115346	-0	0	
-0.00406213	0.00141036	0	-0.118092	-0	0	
-0.0041566	0.00144316	0	-0.120838	-0	0	
-0.00425106	0.00147596	0	-0.123585	-0	0	
-0.00434553	0.00150876	0	-0.126331	-0	0	
-0.00444	0.00154156	0	-0.129077	-0	0	
-0.00453447	0.00157436	0	-0.131824	-0	0	
-0.00462894	0.00160716	0	-0.13457	-0	0	
-0.0047234	0.00163995	0	-0.137316	-0	0	
-0.00481787	0.00167275	0	-0.140062	-0	0	
-0.00491234	0.00170555	0	-0.142809	-0	0	
-0.00500681	0.00173835	0	-0.145555	-0	0	
-0.00510128	0.00177115	0	-0.148301	-0	0	
-0.00519574	0.00180395	0	-0.151048	-0	0	
-0.00529021	0.00183675	0	-0.153794	-0	0	
-0.00538468	0.00186955	0	-0.15654	-0	0	
-0.00547915	0.00190235	0	-0.159287	-0	0	
-0.00557362	0.00193515	0	-0.162033	-0	0	
-0.00566809	0.00196795	0	-0.164779	-0	0	
-0.00576255	0.00200074	0	-0.167526	-0	0	
-0.00585702	0.00203354	0	-0.170272	-0	0	
-0.00595149	0.00206634	0	-0.173018	-0	0	
-0.00604596	0.00209914	0	-0.175765	-0	0	
-0.00614043	0.00213194	0	-0.178511	-0	0	
-0.00623489	0.00216474	0	-0.181257	-0	0	
-0.00632936	0.00219754	0	-0.184004	-0	0	
-0.00642383	0.00223034	0	-0.18675	-0	0	
-0.0065183	0.00226314	0	-0.189496	-0	0	
-0.00661277	0.00229594	0	-0.192243	-0	0	
-0.00670723	0.00232874	0	-0.194989	-0	0	
-0.0068017	0.00236153	0	-0.197735	-0	0	
-0.00689617	0.00239433	0	-0.200482	-0	0	
-0.00699064	0.00242713	0	-0.203228	-0	0	
-0.00708511	0.00245993	0	-0.205974	-0	0	
-0.00717957	0.00249273	0	-0.208721	-0	0	
-0.00727404	0.00252553	0	-0.211467	-0	0	
-0.00736851	0.00255833	0	-0.214213	-0	0	
-0.00746298	0.00259113	0	-0.21696	-0	0	
-0.00755745	0.00262393	0	-0.219706	-0	0	
-0.00765192	0.00265673	0	-0.222452	-0	0	
-0.00774638	0.00268953	0	-0.225198	-0	0	
-0.00784085	0.00272232	0	-0.227945	-0	0	
-0.00793532	0.00275512	0	-0.230691	-0	0	
-0.00802979	0.00278792	0	-0.233437	-0	0	
-0.00812426	0.00282072	0	-0.236184	-0	0	
-0.00821872	0.00285352	0	-0.23893	-0	0	
-0.00831319	0.00288632	0	-0.241676	-0	0	
-0.00840766	0.00291912	0	-0.244423	-0	0	
-0.00850213	0.00295192	0	-0.247169	-0	0	
-0.0085966	0.00298472	0	-0.249915	-0	0	
-0.00869106	0.00301752	0	-0.252662	-0	0	
-0.00878553	0.00305032	0	-0.255408	-0	0	
-0.00888	0.00308311	0	-0.258154	-0	0	
-0.00897447	0.00311591	0	-0.260901	-0	0	
-0.00906894	0.00314871	0	-0.263647	-0	0	
-0.0091634	0.00318151	0	-0.266393	-0	0	
-0.00925787	0.00321431	0	-0.26914	-0	0	
-0.00935234	0.00324711	0	-0.271886	-0	0	
-0.00944681	0.00327991	0	-0.274632	-0	0	
-0.00954128	0.00331271	0	-0.277379	-0	0	
-0.00963574	0.00334551	0	-0.280125	-0	0	
-0.00973021	0.00337831	0	-0.282871	-0	0	
-0.00982468	0.00341111	0	-0.285618	-0	0	
-0.00991915	0.0034439	0	-0.288364	-0	0	
-0.0100136	0.0034767	0	-0.29111	-0	0	
-0.0101081	0.0035095	0	-0.293857	-0	0	
-0.0102026	0.0035423	0	-0.296603	-0	0	
-0.010297	0.0035751	0	-0.299349	-0	0	
-0.0103915	0.0036079	0	-0.302096	-0	0	
-0.010486	0.0036407	0	-0.304842	-0	0	
-0.0105804	0.0036735	0	-0.307588	-0	0	
-0.0106749	0.0037063	0	-0.310335	-0	0	
-0.0107694	0.0037391	0	-0.313081	-0	0	
-0.0108638	0.0037719	0	-0.315827	-0	0	
-0.0109583	0.00380469	0	-0.318573	-0	0	
-0.0110528	0.00383749	0	-0.32132	-0	0	
-0.0111472	0.00387029	0	-0.324066	-0	0	
-0.0112417	0.00390309	0	-0.326812	-0	0	
-0.0113362	0.00393589	0	-0.329559	-0	0	
-0.0114306	0.00396869	0	-0.332305	-0	0	
-0.0115251	0.00400149	0	-0.335051	-0	0	
-0.0116196	0.00403429	0	-0.337798	-0	0	
-0.011714	0.00406709	0	-0.340544	-0	0	
-0.0118085	0.00409989	0	-0.34329	-0	0	
-0.011903	0.00413269	0	-0.346037	-0	0	
-0.0119974	0.00416548	0	-0.348783	-0	0	
-0.0120919	0.00419828	0	-0.351529	-0	0	
-0.0121864	0.00423108	0	-0.354276	-0	0	
-0.0122809	0.00426388	0	-0.357022	-0	0	
-0.0123753	0.00429668	0	-0.359768	-0	0	
-0.0124698	0.00432948	0	-0.362515	-0	0	
-0.0125643	0.00436228	0	-0.365261	-0	0	
-0.0126587	0.00439508	0	-0.368007	-0	0	
-0.0127532	0.00442788	0	-0.370754	-0	0	
-0.0128477	0.00446068	0	-0.3735	-0	0	
-0.0129421	0.00449348	0	-0.376246	-0	0	
-0.0130366	0.00452627	0	-0.378993	-0	0	
-0.0131311	0.00455907	0	-0.381739	-0	0	
-0.0132255	0.00459187	0	-0.384485	-0	0	
-0.01332	0.00462467	0	-0.387232	-0	0	
-0.0134145	0.00465747	0	-0.389978	-0	0	
-0.0135089	0.00469027	0	-0.392724	-0	0	
-0.0136034	0.00472307	0	-0.395471	-0	0	
-0.0136979	0.00475587	0	-0.398217	-0	0	
-0.0137923	0.00478867	0	-0.400963	-0	0	
-0.0138868	0.00482147	0	-0.403709	-0	0	
-0.0139813	0.00485427	0	-0.406456	-0	0	
-0.0140757	0.00488706	0	-0.409202	-0	0	
-0.0141702	0.00491986	0	-0.411948	-0	0	
-0.0142647	0.00495266	0	-0.414695	-0	0	
-0.0143591	0.00498546	0	-0.417441	-0	0	
-0.0144536	0.00501826	0	-0.420187	-0	0	
-0.0145481	0.00505106	0	-0.422934	-0	0	
-0.0146426	0.00508386	0	-0.42568	-0	0	
-0.014737	0.00511666	0	-0.428426	-0	0	
-0.0148315	0.00514946	0	-0.431173	-0	0	
-0.014926	0.00518226	0	-0.433919	-0	0	
-0.0150204	0.00521506	0	-0.436665	-0	0	
-0.0151149	0.00524785	0	-0.439412	-0	0	
-0.0152094	0.00528065	0	-0.442158	-0	0	
-0.0153038	0.00531345	0	-0.444904	-0	0	
-0.0153983	0.00534625	0	-0.447651	-0	0	
-0.0154928	0.00537905	0	-0.450397	-0	0	
-0.0155872	0.00541185	0	-0.453143	-0	0	
-0.0156817	0.00544465	0	-0.45589	-0	0	
-0.0157762	0.00547745	0	-0.458636	-0	0	
-0.0158706	0.00551025	0	-0.461382	-0	0	
-0.0159651	0.00554305	0	-0.464129	-0	0	
-0.0160596	0.00557585	0	-0.466875	-0	0	
-0.016154	0.00560864	0	-0.469621	-0	0	
-0.0162485	0.00564144	0	-0.472368	-0	0	
-0.016343	0.00567424	0	-0.475114	-0	0	
-0.0164374	0.00570704	0	-0.47786	-0	0	
-0.0165319	0.00573984	0	-0.480607	-0	0	
-0.0166264	0.00577264	0	-0.483353	-0	0	
-0.0167209	0.00580544	0	-0.486099	-0	0	
-0.0168153	0.00583824	0	-0.488846	-0	0	
-0.0169098	0.00587104	0	-0.491592	-0	0	
-0.0170043	0.00590384	0	-0.494338	-0	0	
-0.0170987	0.00593664	0	-0.497084	-0	0	
-0.0171932	0.00596943	0	-0.499831	-0	0	
-0.0172877	0.00600223	0	-0.502577	-0	0	
-0.0173821	0.00603503	0	-0.505323	-0	0	
-0.0174766	0.00606783	0	-0.50807	-0	0	
-0.0175711	0.00610063	0	-0.510816	-0	0	
-0.0176655	0.00613343	0	-0.513562	-0	0	
-0.01776	0.00616623	0	-0.516309	-0	0	
-0.0178545	0.00619903	0	-0.519055	-0	0	
-0.0179489	0.00623183	0	-0.521801	-0	0	
-0.0180434	0.00626463	0	-0.524548	-0	0	
-0.0181379	0.00629743	0	-0.527294	-0	0	
-0.0182323	0.00633022	0	-0.53004	-0	0	
-0.0183268	0.00636302	0	-0.532787	-0	0	
-0.0184213	0.00639582	0	-0.535533	-0	0	
-0.0185157	0.00642862	0	-0.538279	-0	0	
-0.0186102	0.00646142	0	-0.541026	-0	0	
-0.0187047	0.00649422	0	-0.543772	-0	0	
-0.0187991	0.00652702	0	-0.546518	-0	0	
-0.0188936	0.00655982	0	-0.549265	-0	0	
-0.0189881	0.00659262	0	-0.552011	-0	0	
-0.0190826	0.00662542	0	-0.554757	-0	0	
-0.019177	0.00665822	0	-0.557504	-0	0	
-0.0192715	0.00669101	0	-0.56025	-0	0	
-0.019366	0.00672381	0	-0.562996	-0	0	
-0.0194604	0.00675661	0	-0.565743	-0	0	
-0.0195549	0.00678941	0	-0.568489	-0	0	
-0.0196494	0.00682221	0	-0.571235	-0	0	
-0.0197438	0.00685501	0	-0.573982	-0	0	
-0.0198383	0.00688781	0	-0.576728	-0	0	
-0.0199328	0.00692061	0	-0.579474	-0	0	
-0.0200272	0.00695341	0	-0.58222	-0	0	
-0.0201217	0.00698621	0	-0.584967	-0	0	
-0.0202162	0.00701901	0	-0.587713	-0	0	
-0.0203106	0.0070518	0	-0.590459	-0	0	
-0.0204051	0.0070846	0	-0.593206	-0	0	
-0.0204996	0.0071174	0	-0.595952	-0	0	
-0.020594	0.0071502	0	-0.598698	-0	0	
-0.0206885	0.007183	0	-0.601445	-0	0	
-0.020783	0.0072158	0	-0.604191	-0	0	
-0.0208774	0.0072486	0	-0.606937	-0	0	
-0.0209719	0.0072814	0	-0.609684	-0	0	
-0.0210664	0.0073142	0	-0.61243	-0	0	
-0.0211609	0.007347	0	-0.615176	-0	0	
-0.0212553	0.0073798	0	-0.617923	-0	0	
-0.0213498	0.00741259	0	-0.620669	-0	0	
-0.0214443	0.00744539	0	-0.623415	-0	0	
-0.0215387	0.00747819	0	-0.626162	-0	0	
-0.0216332	0.00751099	0	-0.628908	-0	0	
-0.0217277	0.00754379	0	-0.631654	-0	0	
-0.0218221	0.00757659	0	-0.634401	-0	0	
-0.0219166	0.00760939	0	-0.637147	-0	0	
-0.0220111	0.00764219	0	-0.639893	-0	0	
-0.0221055	0.00767499	0	-0.64264	-0	0	
-0.0222	0.00770779	0	-0.645386	-0	0	
-0.0222945	0.00774059	0	-0.648132	-0	0	
-0.0223889	0.00777338	0	-0.650879	-0	0	
-0.0224834	0.00780618	0	-0.653625	-0	0	
-0.0225779	0.00783898	0	-0.656371	-0	0	
-0.0226723	0.00787178	0	-0.659118	-0	0	
-0.0227668	0.00790458	0	-0.661864	-0	0	
-0.0228613	0.00793738	0	-0.66461	-0	0	
-0.0229557	0.00797018	0	-0.667357	-0	0	
-0.0230502	0.00800298	0	-0.670103	-0	0	
-0.0231447	0.00803578	0	-0.672849	-0	0	
-0.0232391	0.00806858	0	-0.675595	-0	0	
-0.0233336	0.00810138	0	-0.678342	-0	0	
-0.0234281	0.00813417	0	-0.681088	-0	0	
-0.0235226	0.00816697	0	-0.683834	-0	0	
-0.023617	0.00819977	0	-0.686581	-0	0	
-0.0237115	0.00823257	0	-0.689327	-0	0	
-0.023806	0.00826537	0	-0.692073	-0	0	
-0.0239004	0.00829817	0	-0.69482	-0	0	
-0.0239949	0.00833097	0	-0.697566	-0	0	
-0.0240894	0.00836377	0	-0.700312	-0	0	
-0.0241838	0.00839657	0	-0.703059	-0	0	
-0.0242783	0.00842937	0	-0.705805	-0	0	
-0.0243728	0.00846217	0	-0.708551	-0	0	
-0.0244672	0.00849496	0	-0.711298	-0	0	
-0.0245617	0.00852776	0	-0.714044	-0	0	
-0.0246562	0.00856056	0	-0.71679	-0	0	
-0.0247506	0.00859336	0	-0.719537	-0	0	
-0.0248451	0.00862616	0	-0.722283	-0	0	
-0.0249396	0.00865896	0	-0.725029	-0	0	
-0.025034	0.00869176	0	-0.727776	-0	0	
-0.0251285	0.00872456	0	-0.730522	-0	0	
-0.025223	0.00875736	0	-0.733268	-0	0	
-0.0253174	0.00879016	0	-0.736015	-0	0	
-0.0254119	0.00882296	0	-0.738761	-0	0	
-0.0255064	0.00885575	0	-0.741507	-0	0	
-0.0256009	0.00888855	0	-0.744254	-0	0	
-0.0256953	0.00892135	0	-0.747	-0	0	
-0.0257898	0.00895415	0	-0.749746	-0	0	
-0.0258843	0.00898695	0	-0.752493	-0	0	
-0.0259787	0.00901975	0	-0.755239	-0	0	
-0.0260732	0.00905255	0	-0.757985	-0	0	
-0.0261677	0.00908535	0	-0.760731	-0	0	
-0.0262621	0.00911815	0	-0.763478	-0	0	
-0.0263566	0.00915095	0	-0.766224	-0	0	
-0.0264511	0.00918375	0	-0.76897	-0	0	
-0.0265455	0.00921654	0	-0.771717	-0	0	
-0.02664	0.00924934	0	-0.774463	-0	0	
-0.0267345	0.00928214	0	-0.777209	-0	0	
-0.0268289	0.00931494	0	-0.779956	-0	0	
-0.0269234	0.00934774	0	-0.782702	-0	0	
-0.0270179	0.00938054	0	-0.785448	-0	0	
-0.0271123	0.00941334	0	-0.788195	-0	0	
-0.0272068	0.00944614	0	-0.790941	-0	0	
-0.0273013	0.00947894	0	-0.793687	-0	0	
-0.0273957	0.00951174	0	-0.796434	-0	0	
-0.0274902	0.00954454	0	-0.79918	-0	0	
-0.0275847	0.00957733	0	-0.801926	-0	0	
-0.0276791	0.00961013	0	-0.804673	-0	0	
-0.0277736	0.00964293	0	-0.807419	-0	0	
-0.0278681	0.00967573	0	-0.810165	-0	0	
-0.0279626	0.00970853	0	-0.812912	-0	0	
-0.028057	0.00974133	0	-0.815658	-0	0	
-0.0281515	0.00977413	0	-0.818404	-0	0	
-0.028246	0.00980693	0	-0.821151	-0	0	
-0.0283404	0.00983973	0	-0.823897	-0	0	
-0.0284349	0.00987253	0	-0.826643	-0	0	
-0.0285294	0.00990533	0	-0.82939	-0	0	
-0.0286238	0.00993812	0	-0.832136	-0	0	
-0.0287183	0.00997092	0	-0.834882	-0	0	
-0.0288128	0.0100037	0	-0.837629	-0	0	
-0.0289072	0.0100365	0	-0.840375	-0	0	
-0.0290017	0.0100693	0	-0.843121	-0	0	
-0.0290962	0.0101021	0	-0.845868	-0	0	
-0.0291906	0.0101349	0	-0.848614	-0	0	
-0.0292851	0.0101677	0	-0.85136	-0	0	
-0.0293796	0.0102005	0	-0.854106	-0	0	
-0.029474	0.0102333	0	-0.856853	-0	0	
-0.0295685	0.0102661	0	-0.859599	-0	0	
-0.029663	0.0102989	0	-0.862345	-0	0	
-0.0297574	0.0103317	0	-0.865092	-0	0	
-0.0298519	0.0103645	0	-0.867838	-0	0	
-0.0299464	0.0103973	0	-0.870584	-0	0	
-0.0300409	0.0104301	0	-0.873331	-0	0	
-0.0301353	0.0104629	0	-0.876077	-0	0	
-0.0302298	0.0104957	0	-0.878823	-0	0	
-0.0303243	0.0105285	0	-0.88157	-0	0	
-0.0304187	0.0105613	0	-0.884316	-0	0	
-0.0305132	0.0105941	0	-0.887062	-0	0	
-0.0306077	0.0106269	0	-0.889809	-0	0	
-0.0307021	0.0106597	0	-0.892555	-0	0	
-0.0307966	0.0106925	0	-0.895301	-0	0	
-0.0308911	0.0107253	0	-0.898048	-0	0	
-0.0309855	0.0107581	0	-0.900794	-0	0	
-0.03108	0.0107909	0	-0.90354	-0	0	
-0.0311745	0.0108237	0	-0.906287	-0	0	
-0.0312689	0.0108565	0	-0.909033	-0	0	
-0.0313634	0.0108893	0	-0.911779	-0	0	
-0.0314579	0.0109221	0	-0.914526	-0	0	
-0.0315523	0.0109549	0	-0.917272	-0	0	
-0.0316468	0.0109877	0	-0.920018	-0	0	
-0.0317413	0.0110205	0	-0.922765	-0	0	
-0.0318357	0.0110533	0	-0.925511	-0	0	
-0.0319302	0.0110861	0	-0.928257	-0	0	
-0.0320247	0.0111189	0	-0.931004	-0	0	
-0.0321191	0.0111517	0	-0.93375	-0	0	
-0.0322136	0.0111845	0	-0.936496	-0	0	
-0.0323081	0.0112173	0	-0.939242	-0	0	
-0.0324026	0.0112501	0	-0.941989	-0	0	
-0.032497	0.0112829	0	-0.944735	-0	0	
-0.0325915	0.0113157	0	-0.947481	-0	0	
-0.032686	0.0113485	0	-0.950228	-0	0	
-0.0327804	0.0113813	0	-0.952974	-0	0	
-0.0328749	0.0114141	0	-0.95572	-0	0	
-0.0329694	0.0114469	0	-0.958467	-0	0	
-0.0330638	0.0114797	0	-0.961213	-0	0	
-0.0331583	0.0115125	0	-0.963959	-0	0	
-0.0332528	0.0115453	0	-0.966706	-0	0	
-0.0333472	0.0115781	0	-0.969452	-0	0	
-0.0334417	0.0116109	0	-0.972198	-0	0	
-0.0335362	0.0116437	0	-0.974945	-0	0	
-0.0336306	0.0116765	0	-0.977691	-0	0	
-0.0337251	0.0117093	0	-0.980437	-0	0	
-0.0338196	0.0117421	0	-0.983184	-0	0	
-0.033914	0.0117749	0	-0.98593	-0	0	
-0.0340085	0.0118077	0	-0.988676	-0	0	
-0.034103	0.0118405	0	-0.991423	-0	0	
-0.0341974	0.0118733	0	-0.994169	-0	0	
-0.0342919	0.0119061	0	-0.996915	-0	0	
-0.0343864	0.0119389	0	-0.999662	-0	0	
-0.0344809	0.0119717	0	-1.00241	-0	0	
-0.0345753	0.0120045	0	-1.00515	-0	0	
-0.0346698	0.0120373	0	-1.0079	-0	0	
-0.0347643	0.0120701	0	-1.01065	-0	0	
-0.0348587	0.0121029	0	-1.01339	-0	0	
-0.0349532	0.0121357	0	-1.01614	-0	0	
-0.0350477	0.0121685	0	-1.01889	-0	0	
-0.0351421	0.0122013	0	-1.02163	-0	0	
-0.0352366	0.0122341	0	-1.02438	-0	0	
-0.0353311	0.0122669	0	-1.02712	-0	0	
-0.0354255	0.0122997	0	-1.02987	-0	0	
-0.03552	0.0123325	0	-1.03262	-0	0	
-0.0356145	0.0123653	0	-1.03536	-0	0	
-0.0357089	0.0123981	0	-1.03811	-0	0	
-0.0358034	0.0124309	0	-1.04086	-0	0	
-0.0358979	0.0124637	0	-1.0436	-0	0	
-0.0359923	0.0124965	0	-1.04635	-0	0	
-0.0360868	0.0125293	0	-1.0491	-0	0	
-0.0361813	0.0125621	0	-1.05184	-0	0	
-0.0362757	0.0125949	0	-1.05459	-0	0	
-0.0363702	0.0126277	0	-1.05733	-0	0	
-0.0364647	0.0126604	0	-1.06008	-0	0	
-0.0365592	0.0126932	0	-1.06283	-0	0	
-0.0366536	0.012726	0	-1.06557	-0	0	
-0.0367481	0.0127588	0	-1.06832	-0	0	
-0.0368426	0.0127916	0	-1.07107	-0	0	
-0.036937	0.0128244	0	-1.07381	-0	0	
-0.0370315	0.0128572	0	-1.07656	-0	0	
-0.037126	0.01289	0	-1.0793	-0	0	
-0.0372204	0.0129228	0	-1.08205	-0	0	
-0.0373149	0.0129556	0	-1.0848	-0	0	
-0.0374094	0.0129884	0	-1.08754	-0	0	
-0.0375038	0.0130212	0	-1.09029	-0	0	
-0.0375983	0.013054	0	-1.09304	-0	0	
-0.0376928	0.0130868	0	-1.09578	-0	0	
-0.0377872	0.0131196	0	-1.09853	-0	0	
-0.0378817	0.0131524	0	-1.10128	-0	0	
-0.0379762	0.0131852	0	-1.10402	-0	0	
-0.0380706	0.013218	0	-1.10677	-0	0	
-0.0381651	0.0132508	0	-1.10951	-0	0	
-0.0382596	0.0132836	0	-1.11226	-0	0	
-0.038354	0.0133164	0	-1.11501	-0	0	
-0.0384485	0.0133492	0	-1.11775	-0	0	
-0.038543	0.013382	0	-1.1205	-0	0	
-0.0386374	0.0134148	0	-1.12325	-0	0	
-0.0387319	0.0134476	0	-1.12599	-0	0	
-0.0388264	0.0134804	0	-1.12874	-0	0	
-0.0389209	0.0135132	0	-1.13149	-0	0	
-0.0390153	0.013546	0	-1.13423	-0	0	
-0.0391098	0.0135788	0	-1.13698	-0	0	
-0.0392043	0.0136116	0	-1.13972	-0	0	
-0.0392987	0.0136444	0	-1.14247	-0	0	
-0.0393932	0.0136772	0	-1.14522	-0	0	
-0.0394877	0.01371	0	-1.14796	-0	0	
-0.0395821	0.0137428	0	-1.15071	-0	0	
-0.0396766	0.0137756	0	-1.15346	-0	0	
-0.0397711	0.0138084	0	-1.1562	-0	0	
-0.0398655	0.0138412	0	-1.15895	-0	0	
-0.03996	0.013874	0	-1.16169	-0	0	
-0.0400545	0.0139068	0	-1.16444	-0	0	
-0.0401489	0.0139396	0	-1.16719	-0	0	
-0.0402434	0.0139724	0	-1.16993	-0	0	
-0.0403379	0.0140052	0	-1.17268	-0	0	
-0.0404323	0.014038	0	-1.17543	-0	0	
-0.0405268	0.0140708	0	-1.17817	-0	0	
-0.0406213	0.0141036	0	-1.18092	-0	0	
-0.0407157	0.0141364	0	-1.18367	-0	0	
-0.0408102	0.0141692	0	-1.18641	-0	0	
-0.0409047	0.014202	0	-1.18916	-0	0	
-0.0409992	0.0142348	0	-1.1919	-0	0	
-0.0410936	0.0142676	0	-1.19465	-0	0	
-0.0411881	0.0143004	0	-1.1974	-0	0	
-0.0412826	0.0143332	0	-1.20014	-0	0	
-0.041377	0.014366	0	-1.20289	-0	0	
-0.0414715	0.0143988	0	-1.20564	-0	0	
-0.041566	0.0144316	0	-1.20838	-0	0	
-0.0416604	0.0144644	0	-1.21113	-0	0	
-0.0417549	0.0144972	0	-1.21387	-0	0	
-0.0418494	0.01453	0	-1.21662	-0	0	
-0.0419438	0.0145628	0	-1.21937	-0	0	
-0.0420383	0.0145956	0	-1.22211	-0	0	
-0.0421328	0.0146284	0	-1.22486	-0	0	
-0.0422272	0.0146612	0	-1.22761	-0	0	
-0.0423217	0.014694	0	-1.23035	-0	0	
-0.0424162	0.0147268	0	-1.2331	-0	0	
-0.0425106	0.0147596	0	-1.23585	-0	0	
-0.0426051	0.0147924	0	-1.23859	-0	0	
-0.0426996	0.0148252	0	-1.24134	-0	0	
-0.042794	0.014858	0	-1.24408	-0	0	
-0.0428885	0.0148908	0	-1.24683	-0	0	
-0.042983	0.0149236	0	-1.24958	-0	0	
-0.0430774	0.0149564	0	-1.25232	-0	0	
-0.0431719	0.0149892	0	-1.25507	-0	0	
-0.0432664	0.015022	0	-1.25782	-0	0	
-0.0433609	0.0150548	0	-1.26056	-0	0	
-0.0434553	0.0150876	0	-1.26331	-0	0	
-0.0435498	0.0151204	0	-1.26605	-0	0	
-0.0436443	0.0151532	0	-1.2688	-0	0	
-0.0437387	0.015186	0	-1.27155	-0	0	
-0.0438332	0.0152188	0	-1.27429	-0	0	
-0.0439277	0.0152516	0	-1.27704	-0	0	
-0.0440221	0.0152844	0	-1.27979	-0	0	
-0.0441166	0.0153172	0	-1.28253	-0	0	
-0.0442111	0.01535	0	-1.28528	-0	0	
-0.0443055	0.0153828	0	-1.28803	-0	0	
-0.0444	0.0154156	0	-1.29077	-0	0	
-0.0444945	0.0154484	0	-1.29352	-0	0	
-0.0445889	0.0154812	0	-1.29626	-0	0	
-0.0446834	0.015514	0	-1.29901	-0	0	
-0.0447779	0.0155468	0	-1.30176	-0	0	
-0.0448723	0.0155796	0	-1.3045	-0	0	
-0.0449668	0.0156124	0	-1.30725	-0	0	
-0.0450613	0.0156452	0	-1.31	-0	0	
-0.0451557	0.015678	0	-1.31274	-0	0	
-0.0452502	0.0157108	0	-1.31549	-0	0	
-0.0453447	0.0157436	0	-1.31824	-0	0	
-0.0454392	0.0157764	0	-1.32098	-0	0	
-0.0455336	0.0158092	0	-1.32373	-0	0	
-0.0456281	0.015842	0	-1.32647	-0	0	
-0.0457226	0.0158748	0	-1.32922	-0	0	
-0.045817	0.0159076	0	-1.33197	-0	0	
-0.0459115	0.0159404	0	-1.33471	-0	0	
-0.046006	0.0159732	0	-1.33746	-0	0	
-0.0461004	0.016006	0	-1.34021	-0	0	
-0.0461949	0.0160388	0	-1.34295	-0	0	
-0.0462894	0.0160716	0	-1.3457	-0	0	
-0.0463838	0.0161044	0	-1.34844	-0	0	
-0.0464783	0.0161372	0	-1.35119	-0	0	
-0.0465728	0.01617	0	-1.35394	-0	0	
-0.0466672	0.0162028	0	-1.35668	-0	0	
-0.0467617	0.0162356	0	-1.35943	-0	0	
-0.0468562	0.0162683	0	-1.36218	-0	0	
-0.0469506	0.0163011	0	-1.36492	-0	0	
-0.0470451	0.0163339	0	-1.36767	-0	0	
-0.0471396	0.0163667	0	-1.37042	-0	0	
-0.047234	0.0163995	0	-1.37316	-0	0	
-0.0473285	0.0164323	0	-1.37591	-0	0	
-0.047423	0.0164651	0	-1.37865	-0	0	
-0.0475174	0.0164979	0	-1.3814	-0	0	
-0.0476119	0.0165307	0	-1.38415	-0	0	
-0.0477064	0.0165635	0	-1.38689	-0	0	
-0.0478009	0.0165963	0	-1.38964	-0	0	
-0.0478953	0.0166291	0	-1.39239	-0	0	
-0.0479898	0.0166619	0	-1.39513	-0	0	
-0.0480843	0.0166947	0	-1.39788	-0	0	
-0.0481787	0.0167275	0	-1.40062	-0	0	
-0.0482732	0.0167603	0	-1.40337	-0	0	
-0.0483677	0.0167931	0	-1.40612	-0	0	
-0.0484621	0.0168259	0	-1.40886	-0	0	
-0.0485566	0.0168587	0	-1.41161	-0	0	
-0.0486511	0.0168915	0	-1.41436	-0	0	
-0.0487455	0.0169243	0	-1.4171	-0	0	
-0.04884	0.0169571	0	-1.41985	-0	0	
-0.0489345	0.0169899	0	-1.4226	-0	0	
-0.0490289	0.0170227	0	-1.42534	-0	0	
-0.0491234	0.0170555	0	-1.42809	-0	0	
-0.0492179	0.0170883	0	-1.43083	-0	0	
-0.0493123	0.0171211	0	-1.43358	-0	0	
-0.0494068	0.0171539	0	-1.43633	-0	0	
-0.0495013	0.0171867	0	-1.43907	-0	0	
-0.0495957	0.0172195	0	-1.44182	-0	0	
-0.0496902	0.0172523	0	-1.44457	-0	0	
-0.0497847	0.0172851	0	-1.44731	-0	0	
-0.0498792	0.0173179	0	-1.45006	-0	0	
-0.0499736	0.0173507	0	-1.4528	-0	0	
-0.0500681	0.0173835	0	-1.45555	-0	0	
-0.0501626	0.0174163	0	-1.4583	-0	0	
-0.050257	0.0174491	0	-1.46104	-0	0	
-0.0503515	0.0174819	0	-1.46379	-0	0	
-0.050446	0.0175147	0	-1.46654	-0	0	
-0.0505404	0.0175475	0	-1.46928	-0	0	
-0.0506349	0.0175803	0	-1.47203	-0	0	
-0.0507294	0.0176131	0	-1.47478	-0	0	
-0.0508238	0.0176459	0	-1.47752	-0	0	
-0.0509183	0.0176787	0	-1.48027	-0	0	
-0.0510128	0.0177115	0	-1.48301	-0	0	
-0.0511072	0.0177443	0	-1.48576	-0	0	
-0.0512017	0.0177771	0	-1.48851	-0	0	
-0.0512962	0.0178099	0	-1.49125	-0	0	
-0.0513906	0.0178427	0	-1.494	-0	0	
-0.0514851	0.0178755	0	-1.49675	-0	0	
-0.0515796	0.0179083	0	-1.49949	-0	0	
-0.051674	0.0179411	0	-1.50224	-0	0	
-0.0517685	0.0179739	0	-1.50499	-0	0	
-0.051863	0.0180067	0	-1.50773	-0	0	
-0.0519574	0.0180395	0	-1.51048	-0	0	
-0.0520519	0.0180723	0	-1.51322	-0	0	
-0.0521464	0.0181051	0	-1.51597	-0	0	
-0.0522409	0.0181379	0	-1.51872	-0	0	
-0.0523353	0.0181707	0	-1.52146	-0	0	
-0.0524298	0.0182035	0	-1.52421	-0	0	
-0.0525243	0.0182363	0	-1.52696	-0	0	
-0.0526187	0.0182691	0	-1.5297	-0	0	
-0.0527132	0.0183019	0	-1.53245	-0	0	
-0.0528077	0.0183347	0	-1.53519	-0	0	
-0.0529021	0.0183675	0	-1.53794	-0	0	
-0.0529966	0.0184003	0	-1.54069	-0	0	
-0.0530911	0.0184331	0	-1.54343	-0	0	
-0.0531855	0.0184659	0	-1.54618	-0	0	
-0.05328	0.0184987	0	-1.54893	-0	0	
-0.0533745	0.0185315	0	-1.55167	-0	0	
-0.0534689	0.0185643	0	-1.55442	-0	0	
-0.0535634	0.0185971	0	-1.55717	-0	0	
-0.0536579	0.0186299	0	-1.55991	-0	0	
-0.0537523	0.0186627	0	-1.56266	-0	0	
-0.0538468	0.0186955	0	-1.5654	-0	0	
-0.0539413	0.0187283	0	-1.56815	-0	0	
-0.0540357	0.0187611	0	-1.5709	-0	0	
-0.0541302	0.0187939	0	-1.57364	-0	0	
-0.0542247	0.0188267	0	-1.57639	-0	0	
-0.0543192	0.0188595	0	-1.57914	-0	0	
-0.0544136	0.0188923	0	-1.58188	-0	0	
-0.0545081	0.0189251	0	-1.58463	-0	0	
-0.0546026	0.0189579	0	-1.58737	-0	0	
-0.054697	0.0189907	0	-1.59012	-0	0	
-0.0547915	0.0190235	0	-1.59287	-0	0	
-0.054886	0.0190563	0	-1.59561	-0	0	
-0.0549804	0.0190891	0	-1.59836	-0	0	
-0.0550749	0.0191219	0	-1.60111	-0	0	
-0.0551694	0.0191547	0	-1.60385	-0	0	
-0.0552638	0.0191875	0	-1.6066	-0	0	
-0.0553583	0.0192203	0	-1.60935	-0	0	
-0.0554528	0.0192531	0	-1.61209	-0	0	
-0.0555472	0.0192859	0	-1.61484	-0	0	
-0.0556417	0.0193187	0	-1.61758	-0	0	
-0.0557362	0.0193515	0	-1.62033	-0	0	
-0.0558306	0.0193843	0	-1.62308	-0	0	
-0.0559251	0.0194171	0	-1.62582	-0	0	
-0.0560196	0.0194499	0	-1.62857	-0	0	
-0.056114	0.0194827	0	-1.63132	-0	0	
-0.0562085	0.0195155	0	-1.63406	-0	0	
-0.056303	0.0195483	0	-1.63681	-0	0	
-0.0563974	0.0195811	0	-1.63955	-0	0	
-0.0564919	0.0196139	0	-1.6423	-0	0	
-0.0565864	0.0196467	0	-1.64505	-0	0	
-0.0566809	0.0196795	0	-1.64779	-0	0	
-0.0567753	0.0197123	0	-1.65054	-0	0	
-0.0568698	0.0197451	0	-1.65329	-0	0	
-0.0569643	0.0197779	0	-1.65603	-0	0	
-0.0570587	0.0198107	0	-1.65878	-0	0	
-0.0571532	0.0198435	0	-1.66153	-0	0	
-0.0572477	0.0198762	0	-1.66427	-0	0	
-0.0573421	0.019909	0	-1.66702	-0	0	
-0.0574366	0.0199418	0	-1.66976	-0	0	
-0.0575311	0.0199746	0	-1.67251	-0	0	
-0.0576255	0.0200074	0	-1.67526	-0	0	
-0.05772	0.0200402	0	-1.678	-0	0	
-0.0578145	0.020073	0	-1.68075	-0	0	
-0.0579089	0.0201058	0	-1.6835	-0	0	
-0.0580034	0.0201386	0	-1.68624	-0	0	
-0.0580979	0.0201714	0	-1.68899	-0	0	
-0.0581923	0.0202042	0	-1.69174	-0	0	
-0.0582868	0.020237	0	-1.69448	-0	0	
-0.0583813	0.0202698	0	-1.69723	-0	0	
-0.0584757	0.0203026	0	-1.69997	-0	0	
-0.0585702	0.0203354	0	-1.70272	-0	0	
-0.0586647	0.0203682	0	-1.70547	-0	0	
-0.0587592	0.020401	0	-1.70821	-0	0	
-0.0588536	0.0204338	0	-1.71096	-0	0	
-0.0589481	0.0204666	0	-1.71371	-0	0	
-0.0590426	0.0204994	0	-1.71645	-0	0	
-0.059137	0.0205322	0	-1.7192	-0	0	
-0.0592315	0.020565	0	-1.72194	-0	0	
-0.059326	0.0205978	0	-1.72469	-0	0	
-0.0594204	0.0206306	0	-1.72744	-0	0	
-0.0595149	0.0206634	0	-1.73018	-0	0	
-0.0596094	0.0206962	0	-1.73293	-0	0	
-0.0597038	0.020729	0	-1.73568	-0	0	
-0.0597983	0.0207618	0	-1.73842	-0	0	
-0.0598928	0.0207946	0	-1.74117	-0	0	
-0.0599872	0.0208274	0	-1.74392	-0	0	
-0.0600817	0.0208602	0	-1.74666	-0	0	
-0.0601762	0.020893	0	-1.74941	-0	0	
-0.0602706	0.0209258	0	-1.75215	-0	0	
-0.0603651	0.0209586	0	-1.7549	-0	0	
-0.0604596	0.0209914	0	-1.75765	-0	0	
-0.060554	0.0210242	0	-1.76039	-0	0	
-0.0606485	0.021057	0	-1.76314	-0	0	
-0.060743	0.0210898	0	-1.76589	-0	0	
-0.0608374	0.0211226	0	-1.76863	-0	0	
-0.0609319	0.0211554	0	-1.77138	-0	0	
-0.0610264	0.0211882	0	-1.77412	-0	0	
-0.0611209	0.021221	0	-1.77687	-0	0	
-0.0612153	0.0212538	0	-1.77962	-0	0	
-0.0613098	0.0212866	0	-1.78236	-0	0	
-0.0614043	0.0213194	0	-1.78511	-0	0	
-0.0614987	0.0213522	0	-1.78786	-0	0	
-0.0615932	0.021385	0	-1.7906	-0	0	
-0.0616877	0.0214178	0	-1.79335	-0	0	
-0.0617821	0.0214506	0	-1.7961	-0	0	
-0.0618766	0.0214834	0	-1.79884	-0	0	
-0.0619711	0.0215162	0	-1.80159	-0	0	
-0.0620655	0.021549	0	-1.80433	-0	0	
-0.06216	0.0215818	0	-1.80708	-0	0	
-0.0622545	0.0216146	0	-1.80983	-0	0	
-0.0623489	0.0216474	0	-1.81257	-0	0	
-0.0624434	0.0216802	0	-1.81532	-0	0	
-0.0625379	0.021713	0	-1.81807	-0	0	
-0.0626323	0.0217458	0	-1.82081	-0	0	
-0.0627268	0.0217786	0	-1.82356	-0	0	
-0.0628213	0.0218114	0	-1.8263	-0	0	
-0.0629157	0.0218442	0	-1.82905	-0	0	
-0.0630102	0.021877	0	-1.8318	-0	0	
-0.0631047	0.0219098	0	-1.83454	-0	0	
-0.0631992	0.0219426	0	-1.83729	-0	0	
-0.0632936	0.0219754	0	-1.84004	-0	0	
-0.0633881	0.0220082	0	-1.84278	-0	0	
-0.0634826	0.022041	0	-1.84553	-0	0	
-0.063577	0.0220738	0	-1.84828	-0	0	
-0.0636715	0.0221066	0	-1.85102	-0	0	
-0.063766	0.0221394	0	-1.85377	-0	0	
-0.0638604	0.0221722	0	-1.85651	-0	0	
-0.0639549	0.022205	0	-1.85926	-0	0	
-0.0640494	0.0222378	0	-1.86201	-0	0	
-0.0641438	0.0222706	0	-1.86475	-0	0	
-0.0642383	0.0223034	0	-1.8675	-0	0	
-0.0643328	0.0223362	0	-1.87025	-0	0	
-0.0644272	0.022369	0	-1.87299	-0	0	
-0.0645217	0.0224018	0	-1.87574	-0	0	
-0.0646162	0.0224346	0	-1.87848	-0	0	
-0.0647106	0.0224674	0	-1.88123	-0	0	
-0.0648051	0.0225002	0	-1.88398	-0	0	
-0.0648996	0.022533	0	-1.88672	-0	0	
-0.064994	0.0225658	0	-1.88947	-0	0	
-0.0650885	0.0225986	0	-1.89222	-0	0	
-0.065183	0.0226314	0	-1.89496	-0	0	
-0.0652774	0.0226642	0	-1.89771	-0	0	
-0.0653719	0.022697	0	-1.90046	-0	0	
-0.0654664	0.0227298	0	-1.9032	-0	0	
-0.0655609	0.0227626	0	-1.90595	-0	0	
-0.0656553	0.0227954	0	-1.90869	-0	0	
-0.0657498	0.0228282	0	-1.91144	-0	0	
-0.0658443	0.022861	0	-1.91419	-0	0	
-0.0659387	0.0228938	0	-1.91693	-0	0	
-0.0660332	0.0229266	0	-1.91968	-0	0	
-0.0661277	0.0229594	0	-1.92243	-0	0	
-0.0662221	0.0229922	0	-1.92517	-0	0	
-0.0663166	0.023025	0	-1.92792	-0	0	
-0.0664111	0.0230578	0	-1.93067	-0	0	
-0.0665055	0.0230906	0	-1.93341	-0	0	
-0.0666	0.0231234	0	-1.93616	-0	0	
-0.0666945	0.0231562	0	-1.9389	-0	0	
-0.0667889	0.023189	0	-1.94165	-0	0	
-0.0668834	0.0232218	0	-1.9444	-0	0	
-0.0669779	0.0232546	0	-1.94714	-0	0	
-0.0670723	0.0232874	0	-1.94989	-0	0	
-0.0671668	0.0233202	0	-1.95264	-0	0	
-0.0672613	0.023353	0	-1.95538	-0	0	
-0.0673557	0.0233858	0	-1.95813	-0	0	
-0.0674502	0.0234186	0	-1.96087	-0	0	
-0.0675447	0.0234514	0	-1.96362	-0	0	
-0.0676392	0.0234841	0	-1.96637	-0	0	
-0.0677336	0.0235169	0	-1.96911	-0	0	
-0.0678281	0.0235497	0	-1.97186	-0	0	
-0.0679226	0.0235825	0	-1.97461	-0	0	
-0.068017	0.0236153	0	-1.97735	-0	0	
-0.0681115	0.0236481	0	-1.9801	-0	0	
-0.068206	0.0236809	0	-1.98285	-0	0	
-0.0683004	0.0237137	0	-1.98559	-0	0	
-0.0683949	0.0237465	0	-1.98834	-0	0	
-0.0684894	0.0237793	0	-1.99108	-0	0	
-0.0685838	0.0238121	0	-1.99383	-0	0	
-0.0686783	0.0238449	0	-1.99658	-0	0	
-0.0687728	0.0238777	0	-1.99932	-0	0	
-0.0688672	0.0239105	0	-2.00207	-0	0	
-0.0689617	0.0239433	0	-2.00482	-0	0	
-0.0690562	0.0239761	0	-2.00756	-0	0	
-0.0691506	0.0240089	0	-2.01031	-0	0	
-0.0692451	0.0240417	0	-2.01305	-0	0	
-0.0693396	0.0240745	0	-2.0158	-0	0	
-0.069434	0.0241073	0	-2.01855	-0	0	
-0.0695285	0.0241401	0	-2.02129	-0	0	
-0.069623	0.0241729	0	-2.02404	-0	0	
-0.0697174	0.0242057	0	-2.02679	-0	0	
-0.0698119	0.0242385	0	-2.02953	-0	0	
-0.0699064	0.0242713	0	-2.03228	-0	0	
-0.0700009	0.0243041	0	-2.03503	-0	0	
-0.0700953	0.0243369	0	-2.03777	-0	0	
-0.0701898	0.0243697	0	-2.04052	-0	0	
-0.0702843	0.0244025	0	-2.04326	-0	0	
-0.0703787	0.0244353	0	-2.04601	-0	0	
-0.0704732	0.0244681	0	-2.04876	-0	0	
-0.0705677	0.0245009	0	-2.0515	-0	0	
-0.0706621	0.0245337	0	-2.05425	-0	0	
-0.0707566	0.0245665	0	-2.057	-0	0	
-0.0708511	0.0245993	0	-2.05974	-0	0	
-0.0709455	0.0246321	0	-2.06249	-0	0	
-0.07104	0.0246649	0	-2.06523	-0	0	
-0.0711345	0.0246977	0	-2.06798	-0	0	
-0.0712289	0.0247305	0	-2.07073	-0	0	
-0.0713234	0.0247633	0	-2.07347	-0	0	
-0.0714179	0.0247961	0	-2.07622	-0	0	
-0.0713768	0.0247819	0	-2.07503	-0	0	
-0.0712823	0.0247491	0	-2.07228	-0	0	
-0.0711879	0.0247163	0	-2.06953	-0	0	
-0.0710934	0.0246835	0	-2.06679	-0	0	
-0.0709989	0.0246507	0	-2.06404	-0	0	
-0.0709045	0.0246179	0	-2.06129	-0	0	
-0.07081	0.0245851	0	-2.05855	-0	0	
-0.0707155	0.0245523	0	-2.0558	-0	0	
-0.0706211	0.0245195	0	-2.05306	-0	0	
-0.0705266	0.0244867	0	-2.05031	-0	0	
-0.0704321	0.0244539	0	-2.04756	-0	0	
-0.0703377	0.0244211	0	-2.04482	-0	0	
-0.0702432	0.0243883	0	-2.04207	-0	0	
-0.0701487	0.0243555	0	-2.03932	-0	0	
-0.0700543	0.0243227	0	-2.03658	-0	0	
-0.0699598	0.0242899	0	-2.03383	-0	0	
-0.0698653	0.0242571	0	-2.03109	-0	0	
-0.0697708	0.0242243	0	-2.02834	-0	0	
-0.0696764	0.0241915	0	-2.02559	-0	0	
-0.0695819	0.0241587	0	-2.02285	-0	0	
-0.0694874	0.0241259	0	-2.0201	-0	0	
-0.069393	0.0240931	0	-2.01735	-0	0	
-0.0692985	0.0240603	0	-2.01461	-0	0	
-0.069204	0.0240275	0	-2.01186	-0	0	
-0.0691096	0.0239947	0	-2.00911	-0	0	
-0.0690151	0.0239619	0	-2.00637	-0	0	
-0.0689206	0.0239291	0	-2.00362	-0	0	
-0.0688262	0.0238963	0	-2.00088	-0	0	
-0.0687317	0.0238635	0	-1.99813	-0	0	
-0.0686372	0.0238307	0	-1.99538	-0	0	
-0.0685428	0.0237979	0	-1.99264	-0	0	
-0.0684483	0.0237651	0	-1.98989	-0	0	
-0.0683538	0.0237323	0	-1.98714	-0	0	
-0.0682594	0.0236995	0	-1.9844	-0	0	
-0.0681649	0.0236667	0	-1.98165	-0	0	
-0.0680704	0.0236339	0	-1.9789	-0	0	
-0.067976	0.0236011	0	-1.97616	-0	0	
-0.0678815	0.0235683	0	-1.97341	-0	0	
-0.067787	0.0235355	0	-1.97067	-0	0	
-0.0676925	0.0235027	0	-1.96792	-0	0	
-0.0675981	0.0234699	0	-1.96517	-0	0	
-0.0675036	0.0234371	0	-1.96243	-0	0	
-0.0674091	0.0234043	0	-1.95968	-0	0	
-0.0673147	0.0233715	0	-1.95693	-0	0	
-0.0672202	0.0233387	0	-1.95419	-0	0	
-0.0671257	0.0233059	0	-1.95144	-0	0	
-0.0670313	0.0232731	0	-1.9487	-0	0	
-0.0669368	0.0232403	0	-1.94595	-0	0	
-0.0668423	0.0232075	0	-1.9432	-0	0	
-0.0667479	0.0231747	0	-1.94046	-0	0	
-0.0666534	0.0231419	0	-1.93771	-0	0	
-0.0665589	0.0231091	0	-1.93496	-0	0	
-0.0664645	0.0230763	0	-1.93222	-0	0	
-0.06637	0.0230435	0	-1.92947	-0	0	
-0.0662755	0.0230107	0	-1.92672	-0	0	
-0.0661811	0.0229779	0	-1.92398	-0	0	
-0.0660866	0.0229451	0	-1.92123	-0	0	
-0.0659921	0.0229123	0	-1.91849	-0	0	
-0.0658977	0.0228795	0	-1.91574	-0	0	
-0.0658032	0.0228467	0	-1.91299	-0	0	
-0.0657087	0.0228139	0	-1.91025	-0	0	
-0.0656143	0.0227811	0	-1.9075	-0	0	
-0.0655198	0.0227483	0	-1.90475	-0	0	
-0.0654253	0.0227155	0	-1.90201	-0	0	
-0.0653308	0.0226827	0	-1.89926	-0	0	
-0.0652364	0.0226499	0	-1.89652	-0	0	
-0.0651419	0.0226171	0	-1.89377	-0	0	
-0.0650474	0.0225843	0	-1.89102	-0	0	
-0.064953	0.0225515	0	-1.88828	-0	0	
-0.0648585	0.0225187	0	-1.88553	-0	0	
-0.064764	0.0224859	0	-1.88278	-0	0	
-0.0646696	0.0224531	0	-1.88004	-0	0	
-0.0645751	0.0224203	0	-1.87729	-0	0	
-0.0644806	0.0223875	0	-1.87454	-0	0	
-0.0643862	0.0223547	0	-1.8718	-0	0	
-0.0642917	0.0223219	0	-1.86905	-0	0	
-0.0641972	0.0222891	0	-1.86631	-0	0	
-0.0641028	0.0222563	0	-1.86356	-0	0	
-0.0640083	0.0222235	0	-1.86081	-0	0	
-0.0639138	0.0221907	0	-1.85807	-0	0	
-0.0638194	0.0221579	0	-1.85532	-0	0	
-0.0637249	0.0221251	0	-1.85257	-0	0	
-0.0636304	0.0220923	0	-1.84983	-0	0	
-0.063536	0.0220595	0	-1.84708	-0	0	
-0.0634415	0.0220267	0	-1.84434	-0	0	
-0.063347	0.0219939	0	-1.84159	-0	0	
-0.0632525	0.0219611	0	-1.83884	-0	0	
-0.0631581	0.0219283	0	-1.8361	-0	0	
-0.0630636	0.0218955	0	-1.83335	-0	0	
-0.0629691	0.0218627	0	-1.8306	-0	0	
-0.0628747	0.0218299	0	-1.82786	-0	0	
-0.0627802	0.0217971	0	-1.82511	-0	0	
-0.0626857	0.0217643	0	-1.82236	-0	0	
-0.0625913	0.0217315	0	-1.81962	-0	0	
-0.0624968	0.0216987	0	-1.81687	-0	0	
-0.0624023	0.0216659	0	-1.81413	-0	0	
-0.0623079	0.0216331	0	-1.81138	-0	0	
-0.0622134	0.0216003	0	-1.80863	-0	0	
-0.0621189	0.0215675	0	-1.80589	-0	0	
-0.0620245	0.0215347	0	-1.80314	-0	0	
-0.06193	0.0215019	0	-1.80039	-0	0	
-0.0618355	0.0214691	0	-1.79765	-0	0	
-0.0617411	0.0214363	0	-1.7949	-0	0	
-0.0616466	0.0214035	0	-1.79216	-0	0	
-0.0615521	0.0213707	0	-1.78941	-0	0	
-0.0614577	0.0213379	0	-1.78666	-0	0	
-0.0613632	0.0213051	0	-1.78392	-0	0	
-0.0612687	0.0212724	0	-1.78117	-0	0	
-0.0611743	0.0212396	0	-1.77842	-0	0	
-0.0610798	0.0212068	0	-1.77568	-0	0	
-0.0609853	0.021174	0	-1.77293	-0	0	
-0.0608908	0.0211412	0	-1.77018	-0	0	
-0.0607964	0.0211084	0	-1.76744	-0	0	
-0.0607019	0.0210756	0	-1.76469	-0	0	
-0.0606074	0.0210428	0	-1.76195	-0	0	
-0.060513	0.02101	0	-1.7592	-0	0	
-0.0604185	0.0209772	0	-1.75645	-0	0	
-0.060324	0.0209444	0	-1.75371	-0	0	
-0.0602296	0.0209116	0	-1.75096	-0	0	
-0.0601351	0.0208788	0	-1.74821	-0	0	
-0.0600406	0.020846	0	-1.74547	-0	0	
-0.0599462	0.0208132	0	-1.74272	-0	0	
-0.0598517	0.0207804	0	-1.73997	-0	0	
-0.0597572	0.0207476	0	-1.73723	-0	0	
-0.0596628	0.0207148	0	-1.73448	-0	0	
-0.0595683	0.020682	0	-1.73174	-0	0	
-0.0594738	0.0206492	0	-1.72899	-0	0	
-0.0593794	0.0206164	0	-1.72624	-0	0	
-0.0592849	0.0205836	0	-1.7235	-0	0	
-0.0591904	0.0205508	0	-1.72075	-0	0	
-0.059096	0.020518	0	-1.718	-0	0	
-0.0590015	0.0204852	0	-1.71526	-0	0	
-0.058907	0.0204524	0	-1.71251	-0	0	
-0.0588125	0.0204196	0	-1.70977	-0	0	
-0.0587181	0.0203868	0	-1.70702	-0	0	
-0.0586236	0.020354	0	-1.70427	-0	0	
-0.0585291	0.0203212	0	-1.70153	-0	0	
-0.0584347	0.0202884	0	-1.69878	-0	0	
-0.0583402	0.0202556	0	-1.69603	-0	0	
-0.0582457	0.0202228	0	-1.69329	-0	0	
-0.0581513	0.02019	0	-1.69054	-0	0	
-0.0580568	0.0201572	0	-1.68779	-0	0	
-0.0579623	0.0201244	0	-1.68505	-0	0	
-0.0578679	0.0200916	0	-1.6823	-0	0	
-0.0577734	0.0200588	0	-1.67956	-0	0	
-0.0576789	0.020026	0	-1.67681	-0	0	
-0.0575845	0.0199932	0	-1.67406	-0	0	
-0.05749	0.0199604	0	-1.67132	-0	0	
-0.0573955	0.0199276	0	-1.66857	-0	0	
-0.0573011	0.0198948	0	-1.66582	-0	0	
-0.0572066	0.019862	0	-1.66308	-0	0	
-0.0571121	0.0198292	0	-1.66033	-0	0	
-0.0570177	0.0197964	0	-1.65759	-0	0	
-0.0569232	0.0197636	0	-1.65484	-0	0	
-0.0568287	0.0197308	0	-1.65209	-0	0	
-0.0567343	0.019698	0	-1.64935	-0	0	
-0.0566398	0.0196652	0	-1.6466	-0	0	
-0.0565453	0.0196324	0	-1.64385	-0	0	
-0.0564508	0.0195996	0	-1.64111	-0	0	
-0.0563564	0.0195668	0	-1.63836	-0	0	
-0.0562619	0.019534	0	-1.63561	-0	0	
-0.0561674	0.0195012	0	-1.63287	-0	0	
-0.056073	0.0194684	0	-1.63012	-0	0	
-0.0559785	0.0194356	0	-1.62738	-0	0	
-0.055884	0.0194028	0	-1.62463	-0	0	
-0.0557896	0.01937	0	-1.62188	-0	0	
-0.0556951	0.0193372	0	-1.61914	-0	0	
-0.0556006	0.0193044	0	-1.61639	-0	0	
-0.0555062	0.0192716	0	-1.61364	-0	0	
-0.0554117	0.0192388	0	-1.6109	-0	0	
-0.0553172	0.019206	0	-1.60815	-0	0	
-0.0552228	0.0191732	0	-1.60541	-0	0	
-0.0551283	0.0191404	0	-1.60266	-0	0	
-0.0550338	0.0191076	0	-1.59991	-0	0	
-0.0549394	0.0190748	0	-1.59717	-0	0	
-0.0548449	0.019042	0	-1.59442	-0	0	
-0.0547504	0.0190092	0	-1.59167	-0	0	
-0.054656	0.0189764	0	-1.58893	-0	0	
-0.0545615	0.0189436	0	-1.58618	-0	0	
-0.054467	0.0189108	0	-1.58343	-0	0	
-0.0543725	0.018878	0	-1.58069	-0	0	
-0.0542781	0.0188452	0	-1.57794	-0	0	
-0.0541836	0.0188124	0	-1.5752	-0	0	
-0.0540891	0.0187796	0	-1.57245	-0	0	
-0.0539947	0.0187468	0	-1.5697	-0	0	
-0.0539002	0.018714	0	-1.56696	-0	0	
-0.0538057	0.0186812	0	-1.56421	-0	0	
-0.0537113	0.0186484	0	-1.56146	-0	0	
-0.0536168	0.0186156	0	-1.55872	-0	0	
-0.0535223	0.0185828	0	-1.55597	-0	0	
-0.0534279	0.01855	0	-1.55322	-0	0	
-0.0533334	0.0185172	0	-1.55048	-0	0	
-0.0532389	0.0184844	0	-1.54773	-0	0	
-0.0531445	0.0184516	0	-1.54499	-0	0	
-0.05305	0.0184188	0	-1.54224	-0	0	
-0.0529555	0.018386	0	-1.53949	-0	0	
-0.0528611	0.0183532	0	-1.53675	-0	0	
-0.0527666	0.0183204	0	-1.534	-0	0	
-0.0526721	0.0182876	0	-1.53125	-0	0	
-0.0525777	0.0182548	0	-1.52851	-0	0	
-0.0524832	0.018222	0	-1.52576	-0	0	
-0.0523887	0.0181892	0	-1.52302	-0	0	
-0.0522943	0.0181564	0	-1.52027	-0	0	
-0.0521998	0.0181236	0	-1.51752	-0	0	
-0.0521053	0.0180908	0	-1.51478	-0	0	
-0.0520108	0.018058	0	-1.51203	-0	0	
-0.0519164	0.0180252	0	-1.50928	-0	0	
-0.0518219	0.0179924	0	-1.50654	-0	0	
-0.0517274	0.0179596	0	-1.50379	-0	0	
-0.051633	0.0179268	0	-1.50104	-0	0	
-0.0515385	0.017894	0	-1.4983	-0	0	
-0.051444	0.0178612	0	-1.49555	-0	0	
-0.0513496	0.0178284	0	-1.49281	-0	0	
-0.0512551	0.0177956	0	-1.49006	-0	0	
-0.0511606	0.0177628	0	-1.48731	-0	0	
-0.0510662	0.01773	0	-1.48457	-0	0	
-0.0509717	0.0176972	0	-1.48182	-0	0	
-0.0508772	0.0176645	0	-1.47907	-0	0	
-0.0507828	0.0176317	0	-1.47633	-0	0	
-0.0506883	0.0175989	0	-1.47358	-0	0	
-0.0505938	0.0175661	0	-1.47084	-0	0	
-0.0504994	0.0175333	0	-1.46809	-0	0	
-0.0504049	0.0175005	0	-1.46534	-0	0	
-0.0503104	0.0174677	0	-1.4626	-0	0	
-0.050216	0.0174349	0	-1.45985	-0	0	
-0.0501215	0.0174021	0	-1.4571	-0	0	
-0.050027	0.0173693	0	-1.45436	-0	0	
-0.0499325	0.0173365	0	-1.45161	-0	0	
-0.0498381	0.0173037	0	-1.44886	-0	0	
-0.0497436	0.0172709	0	-1.44612	-0	0	
-0.0496491	0.0172381	0	-1.44337	-0	0	
-0.0495547	0.0172053	0	-1.44063	-0	0	
-0.0494602	0.0171725	0	-1.43788	-0	0	
-0.0493657	0.0171397	0	-1.43513	-0	0	
-0.0492713	0.0171069	0	-1.43239	-0	0	
-0.0491768	0.0170741	0	-1.42964	-0	0	
-0.0490823	0.0170413	0	-1.42689	-0	0	
-0.0489879	0.0170085	0	-1.42415	-0	0	
-0.0488934	0.0169757	0	-1.4214	-0	0	
-0.0487989	0.0169429	0	-1.41866	-0	0	
-0.0487045	0.0169101	0	-1.41591	-0	0	
-0.04861	0.0168773	0	-1.41316	-0	0	
-0.0485155	0.0168445	0	-1.41042	-0	0	
-0.0484211	0.0168117	0	-1.40767	-0	0	
-0.0483266	0.0167789	0	-1.40492	-0	0	
-0.0482321	0.0167461	0	-1.40218	-0	0	
-0.0481377	0.0167133	0	-1.39943	-0	0	
-0.0480432	0.0166805	0	-1.39668	-0	0	
-0.0479487	0.0166477	0	-1.39394	-0	0	
-0.0478543	0.0166149	0	-1.39119	-0	0	
-0.0477598	0.0165821	0	-1.38845	-0	0	
-0.0476653	0.0165493	0	-1.3857	-0	0	
-0.0475708	0.0165165	0	-1.38295	-0	0	
-0.0474764	0.0164837	0	-1.38021	-0	0	
-0.0473819	0.0164509	0	-1.37746	-0	0	
-0.0472874	0.0164181	0	-1.37471	-0	0	
-0.047193	0.0163853	0	-1.37197	-0	0	
-0.0470985	0.0163525	0	-1.36922	-0	0	
-0.047004	0.0163197	0	-1.36647	-0	0	
-0.0469096	0.0162869	0	-1.36373	-0	0	
-0.0468151	0.0162541	0	-1.36098	-0	0	
-0.0467206	0.0162213	0	-1.35824	-0	0	
-0.0466262	0.0161885	0	-1.35549	-0	0	
-0.0465317	0.0161557	0	-1.35274	-0	0	
-0.0464372	0.0161229	0	-1.35	-0	0	
-0.0463428	0.0160901	0	-1.34725	-0	0	
-0.0462483	0.0160573	0	-1.3445	-0	0	
-0.0461538	0.0160245	0	-1.34176	-0	0	
-0.0460594	0.0159917	0	-1.33901	-0	0	
-0.0459649	0.0159589	0	-1.33627	-0	0	
-0.0458704	0.0159261	0	-1.33352	-0	0	
-0.045776	0.0158933	0	-1.33077	-0	0	
-0.0456815	0.0158605	0	-1.32803	-0	0	
-0.045587	0.0158277	0	-1.32528	-0	0	
-0.0454925	0.0157949	0	-1.32253	-0	0	
-0.0453981	0.0157621	0	-1.31979	-0	0	
-0.0453036	0.0157293	0	-1.31704	-0	0	
-0.0452091	0.0156965	0	-1.31429	-0	0	
-0.0451147	0.0156637	0	-1.31155	-0	0	
-0.0450202	0.0156309	0	-1.3088	-0	0	
-0.0449257	0.0155981	0	-1.30606	-0	0	
-0.0448313	0.0155653	0	-1.30331	-0	0	
-0.0447368	0.0155325	0	-1.30056	-0	0	
-0.0446423	0.0154997	0	-1.29782	-0	0	
-0.0445479	0.0154669	0	-1.29507	-0	0	
-0.0444534	0.0154341	0	-1.29232	-0	0	
-0.0443589	0.0154013	0	-1.28958	-0	0	
-0.0442645	0.0153685	0	-1.28683	-0	0	
-0.04417	0.0153357	0	-1.28409	-0	0	
-0.0440755	0.0153029	0	-1.28134	-0	0	
-0.0439811	0.0152701	0	-1.27859	-0	0	
-0.0438866	0.0152373	0	-1.27585	-0	0	
-0.0437921	0.0152045	0	-1.2731	-0	0	
-0.0436977	0.0151717	0	-1.27035	-0	0	
-0.0436032	0.0151389	0	-1.26761	-0	0	
-0.0435087	0.0151061	0	-1.26486	-0	0	
-0.0434143	0.0150733	0	-1.26211	-0	0	
-0.0433198	0.0150405	0	-1.25937	-0	0	
-0.0432253	0.0150077	0	-1.25662	-0	0	
-0.0431308	0.0149749	0	-1.25388	-0	0	
-0.0430364	0.0149421	0	-1.25113	-0	0	
-0.0429419	0.0149093	0	-1.24838	-0	0	
-0.0428474	0.0148765	0	-1.24564	-0	0	
-0.042753	0.0148437	0	-1.24289	-0	0	
-0.0426585	0.0148109	0	-1.24014	-0	0	
-0.042564	0.0147781	0	-1.2374	-0	0	
-0.0424696	0.0147453	0	-1.23465	-0	0	
-0.0423751	0.0147125	0	-1.23191	-0	0	
-0.0422806	0.0146797	0	-1.22916	-0	0	
-0.0421862	0.0146469	0	-1.22641	-0	0	
-0.0420917	0.0146141	0	-1.22367	-0	0	
-0.0419972	0.0145813	0	-1.22092	-0	0	
-0.0419028	0.0145485	0	-1.21817	-0	0	
-0.0418083	0.0145157	0	-1.21543	-0	0	
-0.0417138	0.0144829	0	-1.21268	-0	0	
-0.0416194	0.0144501	0	-1.20993	-0	0	
-0.0415249	0.0144173	0	-1.20719	-0	0	
-0.0414304	0.0143845	0	-1.20444	-0	0	
-0.041336	0.0143517	0	-1.2017	-0	0	
-0.0412415	0.0143189	0	-1.19895	-0	0	
-0.041147	0.0142861	0	-1.1962	-0	0	
-0.0410525	0.0142533	0	-1.19346	-0	0	
-0.0409581	0.0142205	0	-1.19071	-0	0	
-0.0408636	0.0141877	0	-1.18796	-0	0	
-0.0407691	0.0141549	0	-1.18522	-0	0	
-0.0406747	0.0141221	0	-1.18247	-0	0	
-0.0405802	0.0140893	0	-1.17972	-0	0	
-0.0404857	0.0140566	0	-1.17698	-0	0	
-0.0403913	0.0140238	0	-1.17423	-0	0	
-0.0402968	0.013991	0	-1.17149	-0	0	
-0.0402023	0.0139582	0	-1.16874	-0	0	
-0.0401079	0.0139254	0	-1.16599	-0	0	
-0.0400134	0.0138926	0	-1.16325	-0	0	
-0.0399189	0.0138598	0	-1.1605	-0	0	
-0.0398245	0.013827	0	-1.15775	-0	0	
-0.03973	0.0137942	0	-1.15501	-0	0	
-0.0396355	0.0137614	0	-1.15226	-0	0	
-0.0395411	0.0137286	0	-1.14952	-0	0	
-0.0394466	0.0136958	0	-1.14677	-0	0	
-0.0393521	0.013663	0	-1.14402	-0	0	
-0.0392577	0.0136302	0	-1.14128	-0	0	
-0.0391632	0.0135974	0	-1.13853	-0	0	
-0.0390687	0.0135646	0	-1.13578	-0	0	
-0.0389743	0.0135318	0	-1.13304	-0	0	
-0.0388798	0.013499	0	-1.13029	-0	0	
-0.0387853	0.0134662	0	-1.12754	-0	0	
-0.0386908	0.0134334	0	-1.1248	-0	0	
-0.0385964	0.0134006	0	-1.12205	-0	0	
-0.0385019	0.0133678	0	-1.11931	-0	0	
-0.0384074	0.013335	0	-1.11656	-0	0	
-0.038313	0.0133022	0	-1.11381	-0	0	
-0.0382185	0.0132694	0	-1.11107	-0	0	
-0.038124	0.0132366	0	-1.10832	-0	0	
-0.0380296	0.0132038	0	-1.10557	-0	0	
-0.0379351	0.013171	0	-1.10283	-0	0	
-0.0378406	0.0131382	0	-1.10008	-0	0	
-0.0377462	0.0131054	0	-1.09734	-0	0	
-0.0376517	0.0130726	0	-1.09459	-0	0	
-0.0375572	0.0130398	0	-1.09184	-0	0	
-0.0374628	0.013007	0	-1.0891	-0	0	
-0.0373683	0.0129742	0	-1.08635	-0	0	
-0.0372738	0.0129414	0	-1.0836	-0	0	
-0.0371794	0.0129086	0	-1.08086	-0	0	
-0.0370849	0.0128758	0	-1.07811	-0	0	
-0.0369904	0.012843	0	-1.07536	-0	0	
-0.036896	0.0128102	0	-1.07262	-0	0	
-0.0368015	0.0127774	0	-1.06987	-0	0	
-0.036707	0.0127446	0	-1.06713	-0	0	
-0.0366125	0.0127118	0	-1.06438	-0	0	
-0.0365181	0.012679	0	-1.06163	-0	0	
-0.0364236	0.0126462	0	-1.05889	-0	0	
-0.0363291	0.0126134	0	-1.05614	-0	0	
-0.0362347	0.0125806	0	-1.05339	-0	0	
-0.0361402	0.0125478	0	-1.05065	-0	0	
-0.0360457	0.012515	0	-1.0479	-0	0	
-0.0359513	0.0124822	0	-1.04516	-0	0	
-0.0358568	0.0124494	0	-1.04241	-0	0	
-0.0357623	0.0124166	0	-1.03966	-0	0	
-0.0356679	0.0123838	0	-1.03692	-0	0	
-0.0355734	0.012351	0	-1.03417	-0	0	
-0.0354789	0.0123182	0	-1.03142	-0	0	
-0.0353845	0.0122854	0	-1.02868	-0	0	
-0.03529	0.0122526	0	-1.02593	-0	0	
-0.0351955	0.0122198	0	-1.02318	-0	0	
-0.0351011	0.012187	0	-1.02044	-0	0	
-0.0350066	0.0121542	0	-1.01769	-0	0	
-0.0349121	0.0121214	0	-1.01495	-0	0	
-0.0348177	0.0120886	0	-1.0122	-0	0	
-0.0347232	0.0120558	0	-1.00945	-0	0	
-0.0346287	0.012023	0	-1.00671	-0	0	
-0.0345343	0.0119902	0	-1.00396	-0	0	
-0.0344398	0.0119574	0	-1.00121	-0	0	
-0.0343453	0.0119246	0	-0.998468	-0	0	
-0.0342508	0.0118918	0	-0.995721	-0	0	
-0.0341564	0.011859	0	-0.992975	-0	0	
-0.0340619	0.0118262	0	-0.990229	-0	0	
-0.0339674	0.0117934	0	-0.987482	-0	0	
-0.033873	0.0117606	0	-0.984736	-0	0	
-0.0337785	0.0117278	0	-0.98199	-0	0	
-0.033684	0.011695	0	-0.979243	-0	0	
-0.0335896	0.0116622	0	-0.976497	-0	0	
-0.0334951	0.0116294	0	-0.973751	-0	0	
-0.0334006	0.0115966	0	-0.971004	-0	0	
-0.0333062	0.0115638	0	-0.968258	-0	0	
-0.0332117	0.011531	0	-0.965512	-0	0	
-0.0331172	0.0114982	0	-0.962765	-0	0	
-0.0330228	0.0114654	0	-0.960019	-0	0	
-0.0329283	0.0114326	0	-0.957273	-0	0	
-0.0328338	0.0113998	0	-0.954526	-0	0	
-0.0327394	0.011367	0	-0.95178	-0	0	
-0.0326449	0.0113342	0	-0.949034	-0	0	
-0.0325504	0.0113014	0	-0.946288	-0	0	
-0.032456	0.0112686	0	-0.943541	-0	0	
-0.0323615	0.0112358	0	-0.940795	-0	0	
-0.032267	0.011203	0	-0.938049	-0	0	
-0.0321725	0.0111702	0	-0.935302	-0	0	
-0.0320781	0.0111374	0	-0.932556	-0	0	
-0.0319836	0.0111046	0	-0.92981	-0	0	
-0.0318891	0.0110718	0	-0.927063	-0	0	
-0.0317947	0.011039	0	-0.924317	-0	0	
-0.0317002	0.0110062	0	-0.921571	-0	0	
-0.0316057	0.0109734	0	-0.918824	-0	0	
-0.0315113	0.0109406	0	-0.916078	-0	0	
-0.0314168	0.0109078	0	-0.913332	-0	0	
-0.0313223	0.010875	0	-0.910585	-0	0	
-0.0312279	0.0108422	0	-0.907839	-0	0	
-0.0311334	0.0108094	0	-0.905093	-0	0	
-0.0310389	0.0107766	0	-0.902346	-0	0	
-0.0309445	0.0107438	0	-0.8996	-0	0	
-0.03085	0.010711	0	-0.896854	-0	0	
-0.0307555	0.0106782	0	-0.894107	-0	0	
-0.0306611	0.0106454	0	-0.891361	-0	0	
-0.0305666	0.0106126	0	-0.888615	-0	0	
-0.0304721	0.0105798	0	-0.885868	-0	0	
-0.0303777	0.010547	0	-0.883122	-0	0	
-0.0302832	0.0105142	0	-0.880376	-0	0	
-0.0301887	0.0104814	0	-0.877629	-0	0	
-0.0300943	0.0104487	0	-0.874883	-0	0	
-0.0299998	0.0104159	0	-0.872137	-0	0	
-0.0299053	0.0103831	0	-0.86939	-0	0	
-0.0298108	0.0103503	0	-0.866644	-0	0	
-0.0297164	0.0103175	0	-0.863898	-0	0	
-0.0296219	0.0102847	0	-0.861152	-0	0	
-0.0295274	0.0102519	0	-0.858405	-0	0	
-0.029433	0.0102191	0	-0.855659	-0	0	
-0.0293385	0.0101863	0	-0.852913	-0	0	
-0.029244	0.0101535	0	-0.850166	-0	0	
-0.0291496	0.0101207	0	-0.84742	-0	0	
-0.0290551	0.0100879	0	-0.844674	-0	0	
-0.0289606	0.0100551	0	-0.841927	-0	0	
-0.0288662	0.0100223	0	-0.839181	-0	0	
-0.0287717	0.00998946	0	-0.836435	-0	0	
-0.0286772	0.00995666	0	-0.833688	-0	0	
-0.0285828	0.00992387	0	-0.830942	-0	0	
-0.0284883	0.00989107	0	-0.828196	-0	0	
-0.0283938	0.00985827	0	-0.825449	-0	0	
-0.0282994	0.00982547	0	-0.822703	-0	0	
-0.0282049	0.00979267	0	-0.819957	-0	0	
-0.0281104	0.00975987	0	-0.81721	-0	0	
-0.028016	0.00972707	0	-0.814464	-0	0	
-0.0279215	0.00969427	0	-0.811718	-0	0	
-0.027827	0.00966147	0	-0.808971	-0	0	
-0.0277325	0.00962867	0	-0.806225	-0	0	
-0.0276381	0.00959587	0	-0.803479	-0	0	
-0.0275436	0.00956308	0	-0.800732	-0	0	
-0.0274491	0.00953028	0	-0.797986	-0	0	
-0.0273547	0.00949748	0	-0.79524	-0	0	
-0.0272602	0.00946468	0	-0.792493	-0	0	
-0.0271657	0.00943188	0	-0.789747	-0	0	
-0.0270713	0.00939908	0	-0.787001	-0	0	
-0.0269768	0.00936628	0	-0.784254	-0	0	
-0.0268823	0.00933348	0	-0.781508	-0	0	
-0.0267879	0.00930068	0	-0.778762	-0	0	
-0.0266934	0.00926788	0	-0.776015	-0	0	
-0.0265989	0.00923508	0	-0.773269	-0	0	
-0.0265045	0.00920229	0	-0.770523	-0	0	
-0.02641	0.00916949	0	-0.767777	-0	0	
-0.0263155	0.00913669	0	-0.76503	-0	0	
-0.0262211	0.00910389	0	-0.762284	-0	0	
-0.0261266	0.00907109	0	-0.759538	-0	0	
-0.0260321	0.00903829	0	-0.756791	-0	0	
-0.0259377	0.00900549	0	-0.754045	-0	0	
-0.0258432	0.00897269	0	-0.751299	-0	0	
-0.0257487	0.00893989	0	-0.748552	-0	0	
-0.0256543	0.00890709	0	-0.745806	-0	0	
-0.0255598	0.00887429	0	-0.74306	-0	0	
-0.0254653	0.0088415	0	-0.740313	-0	0	
-0.0253708	0.0088087	0	-0.737567	-0	0	
-0.0252764	0.0087759	0	-0.734821	-0	0	
-0.0251819	0.0087431	0	-0.732074	-0	0	
-0.0250874	0.0087103	0	-0.729328	-0	0	
-0.024993	0.0086775	0	-0.726582	-0	0	
-0.0248985	0.0086447	0	-0.723835	-0	0	
-0.024804	0.0086119	0	-0.721089	-0	0	
-0.0247096	0.0085791	0	-0.718343	-0	0	
-0.0246151	0.0085463	0	-0.715596	-0	0	
-0.0245206	0.0085135	0	-0.71285	-0	0	
-0.0244262	0.00848071	0	-0.710104	-0	0	
-0.0243317	0.00844791	0	-0.707357	-0	0	
-0.0242372	0.00841511	0	-0.704611	-0	0	
-0.0241428	0.00838231	0	-0.701865	-0	0	
-0.0240483	0.00834951	0	-0.699118	-0	0	
-0.0239538	0.00831671	0	-0.696372	-0	0	
-0.0238594	0.00828391	0	-0.693626	-0	0	
-0.0237649	0.00825111	0	-0.690879	-0	0	
-0.0236704	0.00821831	0	-0.688133	-0	0	
-0.023576	0.00818551	0	-0.685387	-0	0	
-0.0234815	0.00815271	0	-0.682641	-0	0	
-0.023387	0.00811992	0	-0.679894	-0	0	
-0.0232925	0.00808712	0	-0.677148	-0	0	
-0.0231981	0.00805432	0	-0.674402	-0	0	
-0.0231036	0.00802152	0	-0.671655	-0	0	
-0.0230091	0.00798872	0	-0.668909	-0	0	
-0.0229147	0.00795592	0	-0.666163	-0	0	
-0.0228202	0.00792312	0	-0.663416	-0	0	
-0.0227257	0.00789032	0	-0.66067	-0	0	
-0.0226313	0.00785752	0	-0.657924	-0	0	
-0.0225368	0.00782472	0	-0.655177	-0	0	
-0.0224423	0.00779192	0	-0.652431	-0	0	
-0.0223479	0.00775913	0	-0.649685	-0	0	
-0.0222534	0.00772633	0	-0.646938	-0	0	
-0.0221589	0.00769353	0	-0.644192	-0	0	
-0.0220645	0.00766073	0	-0.641446	-0	0	
-0.02197	0.00762793	0	-0.638699	-0	0	
-0.0218755	0.00759513	0	-0.635953	-0	0	
-0.0217811	0.00756233	0	-0.633207	-0	0	
-0.0216866	0.00752953	0	-0.63046	-0	0	
-0.0215921	0.00749673	0	-0.627714	-0	0	
-0.0214977	0.00746393	0	-0.624968	-0	0	
-0.0214032	0.00743113	0	-0.622221	-0	0	
-0.0213087	0.00739834	0	-0.619475	-0	0	
-0.0212143	0.00736554	0	-0.616729	-0	0	
-0.0211198	0.00733274	0	-0.613982	-0	0	
-0.0210253	0.00729994	0	-0.611236	-0	0	
-0.0209308	0.00726714	0	-0.60849	-0	0	
-0.0208364	0.00723434	0	-0.605743	-0	0	
-0.0207419	0.00720154	0	-0.602997	-0	0	
-0.0206474	0.00716874	0	-0.600251	-0	0	
-0.020553	0.00713594	0	-0.597504	-0	0	
-0.0204585	0.00710314	0	-0.594758	-0	0	
-0.020364	0.00707034	0	-0.592012	-0	0	
-0.0202696	0.00703755	0	-0.589266	-0	0	
-0.0201751	0.00700475	0	-0.586519	-0	0	
-0.0200806	0.00697195	0	-0.583773	-0	0	
-0.0199862	0.00693915	0	-0.581027	-0	0	
-0.0198917	0.00690635	0	-0.57828	-0	0	
-0.0197972	0.00687355	0	-0.575534	-0	0	
-0.0197028	0.00684075	0	-0.572788	-0	0	
-0.0196083	0.00680795	0	-0.570041	-0	0	
-0.0195138	0.00677515	0	-0.567295	-0	0	
-0.0194194	0.00674235	0	-0.564549	-0	0	
-0.0193249	0.00670955	0	-0.561802	-0	0	
-0.0192304	0.00667676	0	-0.559056	-0	0	
-0.019136	0.00664396	0	-0.55631	-0	0	
-0.0190415	0.00661116	0	-0.553563	-0	0	
-0.018947	0.00657836	0	-0.550817	-0	0	
-0.0188525	0.00654556	0	-0.548071	-0	0	
-0.0187581	0.00651276	0	-0.545324	-0	0	
-0.0186636	0.00647996	0	-0.542578	-0	0	
-0.0185691	0.00644716	0	-0.539832	-0	0	
-0.0184747	0.00641436	0	-0.537085	-0	0	
-0.0183802	0.00638156	0	-0.534339	-0	0	
-0.0182857	0.00634876	0	-0.531593	-0	0	
-0.0181913	0.00631597	0	-0.528846	-0	0	
-0.0180968	0.00628317	0	-0.5261	-0	0	
-0.0180023	0.00625037	0	-0.523354	-0	0	
-0.0179079	0.00621757	0	-0.520607	-0	0	
-0.0178134	0.00618477	0	-0.517861	-0	0	
-0.0177189	0.00615197	0	-0.515115	-0	0	
-0.0176245	0.00611917	0	-0.512368	-0	0	
-0.01753	0.00608637	0	-0.509622	-0	0	
-0.0174355	0.00605357	0	-0.506876	-0	0	
-0.0173411	0.00602077	0	-0.504129	-0	0	
-0.0172466	0.00598797	0	-0.501383	-0	0	
-0.0171521	0.00595518	0	-0.498637	-0	0	
-0.0170577	0.00592238	0	-0.495891	-0	0	
-0.0169632	0.00588958	0	-0.493144	-0	0	
-0.0168687	0.00585678	0	-0.490398	-0	0	
-0.0167743	0.00582398	0	-0.487652	-0	0	
-0.0166798	0.00579118	0	-0.484905	-0	0	
-0.0165853	0.00575838	0	-0.482159	-0	0	
-0.0164908	0.00572558	0	-0.479413	-0	0	
-0.0163964	0.00569278	0	-0.476666	-0	0	
-0.0163019	0.00565998	0	-0.47392	-0	0	
-0.0162074	0.00562718	0	-0.471174	-0	0	
-0.016113	0.00559439	0	-0.468427	-0	0	
-0.0160185	0.00556159	0	-0.465681	-0	0	
-0.015924	0.00552879	0	-0.462935	-0	0	
-0.0158296	0.00549599	0	-0.460188	-0	0	
-0.0157351	0.00546319	0	-0.457442	-0	0	
-0.0156406	0.00543039	0	-0.454696	-0	0	
-0.0155462	0.00539759	0	-0.451949	-0	0	
-0.0154517	0.00536479	0	-0.449203	-0	0	
-0.0153572	0.00533199	0	-0.446457	-0	0	
-0.0152628	0.00529919	0	-0.44371	-0	0	
-0.0151683	0.00526639	0	-0.440964	-0	0	
-0.0150738	0.0052336	0	-0.438218	-0	0	
-0.0149794	0.0052008	0	-0.435471	-0	0	
-0.0148849	0.005168	0	-0.432725	-0	0	
-0.0147904	0.0051352	0	-0.429979	-0	0	
-0.014696	0.0051024	0	-0.427232	-0	0	
-0.0146015	0.0050696	0	-0.424486	-0	0	
-0.014507	0.0050368	0	-0.42174	-0	0	
-0.0144125	0.005004	0	-0.418993	-0	0	
-0.0143181	0.0049712	0	-0.416247	-0	0	
-0.0142236	0.0049384	0	-0.413501	-0	0	
-0.0141291	0.0049056	0	-0.410755	-0	0	
-0.0140347	0.00487281	0	-0.408008	-0	0	
-0.0139402	0.00484001	0	-0.405262	-0	0	
-0.0138457	0.00480721	0	-0.402516	-0	0	
-0.0137513	0.00477441	0	-0.399769	-0	0	
-0.0136568	0.00474161	0	-0.397023	-0	0	
-0.0135623	0.00470881	0	-0.394277	-0	0	
-0.0134679	0.00467601	0	-0.39153	-0	0	
-0.0133734	0.00464321	0	-0.388784	-0	0	
-0.0132789	0.00461041	0	-0.386038	-0	0	
-0.0131845	0.00457761	0	-0.383291	-0	0	
-0.01309	0.00454481	0	-0.380545	-0	0	
-0.0129955	0.00451202	0	-0.377799	-0	0	
-0.0129011	0.00447922	0	-0.375052	-0	0	
-0.0128066	0.00444642	0	-0.372306	-0	0	
-0.0127121	0.00441362	0	-0.36956	-0	0	
-0.0126177	0.00438082	0	-0.366813	-0	0	
-0.0125232	0.00434802	0	-0.364067	-0	0	
-0.0124287	0.00431522	0	-0.361321	-0	0	
-0.0123343	0.00428242	0	-0.358574	-0	0	
-0.0122398	0.00424962	0	-0.355828	-0	0	
-0.0121453	0.00421682	0	-0.353082	-0	0	
-0.0120508	0.00418402	0	-0.350335	-0	0	
-0.0119564	0.00415123	0	-0.347589	-0	0	
-0.0118619	0.00411843	0	-0.344843	-0	0	
-0.0117674	0.00408563	0	-0.342096	-0	0	
-0.011673	0.00405283	0	-0.33935	-0	0	
-0.0115785	0.00402003	0	-0.336604	-0	0	
-0.011484	0.00398723	0	-0.333857	-0	0	
-0.0113896	0.00395443	0	-0.331111	-0	0	
-0.0112951	0.00392163	0	-0.328365	-0	0	
-0.0112006	0.00388883	0	-0.325618	-0	0	
-0.0111062	0.00385603	0	-0.322872	-0	0	
-0.0110117	0.00382323	0	-0.320126	-0	0	
-0.0109172	0.00379044	0	-0.31738	-0	0	
-0.0108228	0.00375764	0	-0.314633	-0	0	
-0.0107283	0.00372484	0	-0.311887	-0	0	
-0.0106338	0.00369204	0	-0.309141	-0	0	
-0.0105394	0.00365924	0	-0.306394	-0	0	
-0.0104449	0.00362644	0	-0.303648	-0	0	
-0.0103504	0.00359364	0	-0.300902	-0	0	
-0.010256	0.00356084	0	-0.298155	-0	0	
-0.0101615	0.00352804	0	-0.295409	-0	0	
-0.010067	0.00349524	0	-0.292663	-0	0	
-0.00997255	0.00346244	0	-0.289916	-0	0	
-0.00987808	0.00342965	0	-0.28717	-0	0	
-0.00978361	0.00339685	0	-0.284424	-0	0	
-0.00968914	0.00336405	0	-0.281677	-0	0	
-0.00959468	0.00333125	0	-0.278931	-0	0	
-0.00950021	0.00329845	0	-0.276185	-0	0	
-0.00940574	0.00326565	0	-0.273438	-0	0	
-0.00931127	0.00323285	0	-0.270692	-0	0	
-0.0092168	0.00320005	0	-0.267946	-0	0	
-0.00912234	0.00316725	0	-0.265199	-0	0	
-0.00902787	0.00313445	0	-0.262453	-0	0	
-0.0089334	0.00310165	0	-0.259707	-0	0	
-0.00883893	0.00306886	0	-0.25696	-0	0	
-0.00874446	0.00303606	0	-0.254214	-0	0	
-0.00864999	0.00300326	0	-0.251468	-0	0	
-0.00855553	0.00297046	0	-0.248721	-0	0	
-0.00846106	0.00293766	0	-0.245975	-0	0	
-0.00836659	0.00290486	0	-0.243229	-0	0	
-0.00827212	0.00287206	0	-0.240482	-0	0	
-0.00817765	0.00283926	0	-0.237736	-0	0	
-0.00808319	0.00280646	0	-0.23499	-0	0	
-0.00798872	0.00277366	0	-0.232244	-0	0	
-0.00789425	0.00274086	0	-0.229497	-0	0	
-0.00779978	0.00270807	0	-0.226751	-0	0	
-0.00770531	0.00267527	0	-0.224005	-0	0	
-0.00761085	0.00264247	0	-0.221258	-0	0	
-0.00751638	0.00260967	0	-0.218512	-0	0	
-0.00742191	0.00257687	0	-0.215766	-0	0	
-0.00732744	0.00254407	0	-0.213019	-0	0	
-0.00723297	0.00251127	0	-0.210273	-0	0	
-0.00713851	0.00247847	0	-0.207527	-0	0	
-0.00704404	0.00244567	0	-0.20478	-0	0	
-0.00694957	0.00241287	0	-0.202034	-0	0	
-0.0068551	0.00238007	0	-0.199288	-0	0	
-0.00676063	0.00234728	0	-0.196541	-0	0	
-0.00666616	0.00231448	0	-0.193795	-0	0	
-0.0065717	0.00228168	0	-0.191049	-0	0	
-0.00647723	0.00224888	0	-0.188302	-0	0	
-0.00638276	0.00221608	0	-0.185556	-0	0	
-0.00628829	0.00218328	0	-0.18281	-0	0	
-0.00619382	0.00215048	0	-0.180063	-0	0	
-0.00609936	0.00211768	0	-0.177317	-0	0	
-0.00600489	0.00208488	0	-0.174571	-0	0	
-0.00591042	0.00205208	0	-0.171824	-0	0	
-0.00581595	0.00201928	0	-0.169078	-0	0	
-0.00572148	0.00198649	0	-0.166332	-0	0	
-0.00562702	0.00195369	0	-0.163585	-0	0	
-0.00553255	0.00192089	0	-0.160839	-0	0	
-0.00543808	0.00188809	0	-0.158093	-0	0	
-0.00534361	0.00185529	0	-0.155346	-0	0	
-0.00524914	0.00182249	0	-0.1526	-0	0	
-0.00515468	0.00178969	0	-0.149854	-0	0	
-0.00506021	0.00175689	0	-0.147107	-0	0	
-0.00496574	0.00172409	0	-0.144361	-0	0	
-0.00487127	0.00169129	0	-0.141615	-0	0	
-0.0047768	0.00165849	0	-0.138869	-0	0	
-0.00468233	0.0016257	0	-0.136122	-0	0	
-0.00458787	0.0015929	0	-0.133376	-0	0	
-0.0044934	0.0015601	0	-0.13063	-0	0	
-0.00439893	0.0015273	0	-0.127883	-0	0	
-0.00430446	0.0014945	0	-0.125137	-0	0	
-0.00420999	0.0014617	0	-0.122391	-0	0	
-0.00411553	0.0014289	0	-0.119644	-0	0	
-0.00402106	0.0013961	0	-0.116898	-0	0	
-0.00392659	0.0013633	0	-0.114152	-0	0	
-0.00383212	0.0013305	0	-0.111405	-0	0	
-0.00373765	0.0012977	0	-0.108659	-0	0	
-0.00364319	0.00126491	0	-0.105913	-0	0	
-0.00354872	0.00123211	0	-0.103166	-0	0	
-0.00345425	0.00119931	0	-0.10042	-0	0	
-0.00335978	0.00116651	0	-0.0976737	-0	0	
-0.00326531	0.00113371	0	-0.0949274	-0	0	
-0.00317085	0.00110091	0	-0.092181	-0	0	
-0.00307638	0.00106811	0	-0.0894347	-0	0	
-0.00298191	0.00103531	0	-0.0866884	-0	0	
-0.00288744	0.00100251	0	-0.0839421	-0	0	
-0.00279297	0.000969714	0	-0.0811957	-0	0	
-0.00269851	0.000936914	0	-0.0784494	-0	0	
-0.00260404	0.000904115	0	-0.0757031	-0	0	
-0.00250957	0.000871316	0	-0.0729568	-0	0	
-0.0024151	0.000838517	0	-0.0702105	-0	0	
-0.00232063	0.000805718	0	-0.0674641	-0	0	
-0.00222616	0.000772919	0	-0.0647178	-0	0	
-0.0021317	0.00074012	0	-0.0619715	-0	0	
-0.00203723	0.000707321	0	-0.0592252	-0	0	
-0.00194276	0.000674522	0	-0.0564788	-0	0	
-0.00184829	0.000641723	0	-0.0537325	-0	0	
-0.00175382	0.000608924	0	-0.0509862	-0	0	
-0.00165936	0.000576124	0	-0.0482399	-0	0	
-0.00156489	0.000543325	0	-0.0454935	-0	0	
-0.00147042	0.000510526	0	-0.0427472	-0	0	
-0.00137595	0.000477727	0	-0.0400009	-0	0	
-0.00128148	0.000444928	0	-0.0372546	-0	0	
-0.00118702	0.000412129	0	-0.0345083	-0	0	
-0.00109255	0.00037933	0	-0.0317619	-0	0	
-0.00099808	0.000346531	0	-0.0290156	-0	0	
-0.000903611	0.000313732	0	-0.0262693	-0	0	
-0.000809143	0.000280933	0	-0.023523	-0	0	
-0.000714675	0.000248134	0	-0.0207766	-0	0	
-0.000620207	0.000215334	0	-0.0180303	-0	0	
-0.000525739	0.000182535	0	-0.015284	-0	0	
-0.000431271	0.000149736	0	-0.0125377	-0	0	
-0.000336803	0.000116937	0	-0.00979134	-0	0	
-0.000242335	8.41381e-05	0	-0.00704502	-0	0	
-0.000147867	5.1339e-05	0	-0.0042987	-0	0	
-5.33986e-05	1.85399e-05	0	-0.00155237	-0	0	
