Loaded model TwoLinks4PathActs from file Mux4_noAnkleMus.osim
numControls = 2
Initial controls = ~[0 0]
Initial end-effector position  = ~[-0.00499992,0.999975,0]
Initial end-effector velocity  = ~[0,0,0]
newControls 0 = ~[0 0.00544094]
newControls 1 = ~[0 0.00541051]
newControls 2 = ~[0 0.00538007]
newControls 3 = ~[0 0.00534962]
newControls 4 = ~[0 0.00531914]
newControls 5 = ~[0 0.00528866]
newControls 6 = ~[0 0.00525815]
newControls 7 = ~[0 0.00522763]
newControls 8 = ~[0 0.0051971]
newControls 9 = ~[0 0.00516656]
newControls 10 = ~[0 0.005136]
newControls 11 = ~[0 0.00510543]
newControls 12 = ~[0 0.00507485]
newControls 13 = ~[0 0.00504426]
newControls 14 = ~[0 0.00501366]
newControls 15 = ~[0 0.00498305]
newControls 16 = ~[0 0.00495244]
newControls 17 = ~[0 0.00492181]
newControls 18 = ~[0 0.00489118]
newControls 19 = ~[0 0.00486054]
newControls 20 = ~[0 0.00482989]
newControls 21 = ~[0 0.00479924]
newControls 22 = ~[0 0.00476859]
newControls 23 = ~[0 0.00473793]
newControls 24 = ~[0 0.00470726]
newControls 25 = ~[0 0.0046766]
newControls 26 = ~[0 0.00464593]
newControls 27 = ~[0 0.00461525]
newControls 28 = ~[0 0.00458458]
newControls 29 = ~[0 0.0045539]
newControls 30 = ~[0 0.00452322]
newControls 31 = ~[0 0.00449255]
newControls 32 = ~[0 0.00446187]
newControls 33 = ~[0 0.00443119]
newControls 34 = ~[0 0.00440051]
newControls 35 = ~[0 0.00436984]
newControls 36 = ~[0 0.00433916]
newControls 37 = ~[0 0.00430849]
newControls 38 = ~[0 0.00427782]
newControls 39 = ~[0 0.00424715]
newControls 40 = ~[0 0.00421649]
newControls 41 = ~[0 0.00418583]
newControls 42 = ~[0 0.00415517]
newControls 43 = ~[0 0.00412451]
newControls 44 = ~[0 0.00409387]
newControls 45 = ~[0 0.00406322]
newControls 46 = ~[0 0.00403258]
newControls 47 = ~[0 0.00400195]
newControls 48 = ~[0 0.00397132]
newControls 49 = ~[0 0.0039407]
newControls 50 = ~[0 0.00391009]
newControls 51 = ~[0 0.00387948]
newControls 52 = ~[0 0.00384888]
newControls 53 = ~[0 0.00381828]
newControls 54 = ~[0 0.0037877]
newControls 55 = ~[0 0.00375712]
newControls 56 = ~[0 0.00372654]
newControls 57 = ~[0 0.00369598]
newControls 58 = ~[0 0.00366543]
newControls 59 = ~[0 0.00363488]
newControls 60 = ~[0 0.00360434]
newControls 61 = ~[0 0.00357381]
newControls 62 = ~[0 0.00354329]
newControls 63 = ~[0 0.00351278]
newControls 64 = ~[0 0.00348228]
newControls 65 = ~[0 0.00345179]
newControls 66 = ~[0 0.00342131]
newControls 67 = ~[0 0.00339084]
newControls 68 = ~[0 0.00336038]
newControls 69 = ~[0 0.00332993]
newControls 70 = ~[0 0.00329949]
newControls 71 = ~[0 0.00326906]
newControls 72 = ~[0 0.00323865]
newControls 73 = ~[0 0.00320824]
newControls 74 = ~[0 0.00317784]
newControls 75 = ~[0 0.00314746]
newControls 76 = ~[0 0.00311709]
newControls 77 = ~[0 0.00308672]
newControls 78 = ~[0 0.00305637]
newControls 79 = ~[0 0.00302603]
newControls 80 = ~[0 0.00299571]
newControls 81 = ~[0 0.00296539]
newControls 82 = ~[0 0.00293509]
newControls 83 = ~[0 0.00290479]
newControls 84 = ~[0 0.00287451]
newControls 85 = ~[0 0.00284424]
newControls 86 = ~[0 0.00281399]
newControls 87 = ~[0 0.00278374]
newControls 88 = ~[0 0.00275351]
newControls 89 = ~[0 0.00272329]
newControls 90 = ~[0 0.00269308]
newControls 91 = ~[0 0.00266288]
newControls 92 = ~[0 0.0026327]
newControls 93 = ~[0 0.00260253]
newControls 94 = ~[0 0.00257237]
newControls 95 = ~[0 0.00254222]
newControls 96 = ~[0 0.00251208]
newControls 97 = ~[0 0.00248196]
newControls 98 = ~[0 0.00245185]
newControls 99 = ~[0 0.00242175]
newControls 100 = ~[0 0.00239166]
newControls 101 = ~[0 0.00236158]
newControls 102 = ~[0 0.00233152]
newControls 103 = ~[0 0.00230146]
newControls 104 = ~[0 0.00227142]
newControls 105 = ~[0 0.0022414]
newControls 106 = ~[0 0.00221138]
newControls 107 = ~[0 0.00218137]
newControls 108 = ~[0 0.00215138]
newControls 109 = ~[0 0.00212139]
newControls 110 = ~[0 0.00209142]
newControls 111 = ~[0 0.00206146]
newControls 112 = ~[0 0.00203151]
newControls 113 = ~[0 0.00200158]
newControls 114 = ~[0 0.00197165]
newControls 115 = ~[0 0.00194173]
newControls 116 = ~[0 0.00191183]
newControls 117 = ~[0 0.00188193]
newControls 118 = ~[0 0.00185205]
newControls 119 = ~[0 0.00182217]
newControls 120 = ~[0 0.00179231]
newControls 121 = ~[0 0.00176246]
newControls 122 = ~[0 0.00173261]
newControls 123 = ~[0 0.00170278]
newControls 124 = ~[0 0.00167296]
newControls 125 = ~[0 0.00164314]
newControls 126 = ~[0 0.00161334]
newControls 127 = ~[0 0.00158354]
newControls 128 = ~[0 0.00155375]
newControls 129 = ~[0 0.00152398]
newControls 130 = ~[0 0.00149421]
newControls 131 = ~[0 0.00146445]
newControls 132 = ~[0 0.0014347]
newControls 133 = ~[0 0.00140495]
newControls 134 = ~[0 0.00137522]
newControls 135 = ~[0 0.00134549]
newControls 136 = ~[0 0.00131577]
newControls 137 = ~[0 0.00128605]
newControls 138 = ~[0 0.00125635]
newControls 139 = ~[0 0.00122665]
newControls 140 = ~[0 0.00119696]
newControls 141 = ~[0 0.00116727]
newControls 142 = ~[0 0.00113759]
newControls 143 = ~[0 0.00110792]
newControls 144 = ~[0 0.00107825]
newControls 145 = ~[0 0.00104859]
newControls 146 = ~[0 0.00101894]
newControls 147 = ~[0 0.000989287]
newControls 148 = ~[0 0.000959642]
newControls 149 = ~[0 0.000930001]
newControls 150 = ~[0 0.000900366]
newControls 151 = ~[0 0.000870734]
newControls 152 = ~[0 0.000841106]
newControls 153 = ~[0 0.000811482]
newControls 154 = ~[0 0.000781862]
newControls 155 = ~[0 0.000752245]
newControls 156 = ~[0 0.000722631]
newControls 157 = ~[0 0.00069302]
newControls 158 = ~[0 0.000663411]
newControls 159 = ~[0 0.000633804]
newControls 160 = ~[0 0.000604199]
newControls 161 = ~[0 0.000574596]
newControls 162 = ~[0 0.000544994]
newControls 163 = ~[0 0.000515393]
newControls 164 = ~[0 0.000485793]
newControls 165 = ~[0 0.000456194]
newControls 166 = ~[0 0.000426594]
newControls 167 = ~[0 0.000396995]
newControls 168 = ~[0 0.000367395]
newControls 169 = ~[0 0.000337794]
newControls 170 = ~[0 0.000308192]
newControls 171 = ~[0 0.000278589]
newControls 172 = ~[0 0.000248984]
newControls 173 = ~[0 0.000219377]
newControls 174 = ~[0 0.000189768]
newControls 175 = ~[0 0.000160156]
newControls 176 = ~[0 0.000130542]
newControls 177 = ~[0 0.000100924]
newControls 178 = ~[0 7.13019e-05]
newControls 179 = ~[0 4.16763e-05]
newControls 180 = ~[0 1.20463e-05]
newControls 181 = ~[1.75882e-05 0]
newControls 182 = ~[4.72277e-05 0]
newControls 183 = ~[7.68726e-05 0]
newControls 184 = ~[0.000106523 0]
newControls 185 = ~[0.00013618 0]
newControls 186 = ~[0.000165843 0]
newControls 187 = ~[0.000195512 0]
newControls 188 = ~[0.000225189 0]
newControls 189 = ~[0.000254873 0]
newControls 190 = ~[0.000284566 0]
newControls 191 = ~[0.000314266 0]
newControls 192 = ~[0.000343975 0]
newControls 193 = ~[0.000373692 0]
newControls 194 = ~[0.00040342 0]
newControls 195 = ~[0.000433156 0]
newControls 196 = ~[0.000462903 0]
newControls 197 = ~[0.00049266 0]
newControls 198 = ~[0.000522429 0]
newControls 199 = ~[0.000552208 0]
newControls 200 = ~[0.000581999 0]
newControls 201 = ~[0.000611802 0]
newControls 202 = ~[0.000641617 0]
newControls 203 = ~[0.000671446 0]
newControls 204 = ~[0.000701287 0]
newControls 205 = ~[0.000731142 0]
newControls 206 = ~[0.000761011 0]
newControls 207 = ~[0.000790895 0]
newControls 208 = ~[0.000820793 0]
newControls 209 = ~[0.000850706 0]
newControls 210 = ~[0.000880636 0]
newControls 211 = ~[0.000910581 0]
newControls 212 = ~[0.000940543 0]
newControls 213 = ~[0.000970521 0]
newControls 214 = ~[0.00100052 0]
newControls 215 = ~[0.00103053 0]
newControls 216 = ~[0.00106056 0]
newControls 217 = ~[0.00109061 0]
newControls 218 = ~[0.00112068 0]
newControls 219 = ~[0.00115077 0]
newControls 220 = ~[0.00118088 0]
newControls 221 = ~[0.00121101 0]
newControls 222 = ~[0.00124116 0]
newControls 223 = ~[0.00127133 0]
newControls 224 = ~[0.00130153 0]
newControls 225 = ~[0.00133174 0]
newControls 226 = ~[0.00136198 0]
newControls 227 = ~[0.00139224 0]
newControls 228 = ~[0.00142253 0]
newControls 229 = ~[0.00145284 0]
newControls 230 = ~[0.00148317 0]
newControls 231 = ~[0.00151353 0]
newControls 232 = ~[0.00154391 0]
newControls 233 = ~[0.00157432 0]
newControls 234 = ~[0.00160475 0]
newControls 235 = ~[0.00163522 0]
newControls 236 = ~[0.00166571 0]
newControls 237 = ~[0.00169622 0]
newControls 238 = ~[0.00172677 0]
newControls 239 = ~[0.00175734 0]
newControls 240 = ~[0.00178795 0]
newControls 241 = ~[0.00181858 0]
newControls 242 = ~[0.00184924 0]
newControls 243 = ~[0.00187994 0]
newControls 244 = ~[0.00191066 0]
newControls 245 = ~[0.00194142 0]
newControls 246 = ~[0.00197221 0]
newControls 247 = ~[0.00200303 0]
newControls 248 = ~[0.00203388 0]
newControls 249 = ~[0.00206477 0]
newControls 250 = ~[0.00209569 0]
newControls 251 = ~[0.00212665 0]
newControls 252 = ~[0.00215764 0]
newControls 253 = ~[0.00218867 0]
newControls 254 = ~[0.00221973 0]
newControls 255 = ~[0.00225083 0]
newControls 256 = ~[0.00228197 0]
newControls 257 = ~[0.00231315 0]
newControls 258 = ~[0.00234436 0]
newControls 259 = ~[0.00237561 0]
newControls 260 = ~[0.0024069 0]
newControls 261 = ~[0.00243824 0]
newControls 262 = ~[0.00246961 0]
newControls 263 = ~[0.00250102 0]
newControls 264 = ~[0.00253247 0]
newControls 265 = ~[0.00256397 0]
newControls 266 = ~[0.00259551 0]
newControls 267 = ~[0.00262709 0]
newControls 268 = ~[0.00265871 0]
newControls 269 = ~[0.00269038 0]
newControls 270 = ~[0.0027221 0]
newControls 271 = ~[0.00275385 0]
newControls 272 = ~[0.00278566 0]
newControls 273 = ~[0.00281751 0]
newControls 274 = ~[0.00284941 0]
newControls 275 = ~[0.00288135 0]
newControls 276 = ~[0.00291334 0]
newControls 277 = ~[0.00294539 0]
newControls 278 = ~[0.00297748 0]
newControls 279 = ~[0.00300962 0]
newControls 280 = ~[0.00304181 0]
newControls 281 = ~[0.00307405 0]
newControls 282 = ~[0.00310634 0]
newControls 283 = ~[0.00313868 0]
newControls 284 = ~[0.00317108 0]
newControls 285 = ~[0.00320353 0]
newControls 286 = ~[0.00323603 0]
newControls 287 = ~[0.00326859 0]
newControls 288 = ~[0.0033012 0]
newControls 289 = ~[0.00333387 0]
newControls 290 = ~[0.00336659 0]
newControls 291 = ~[0.00339937 0]
newControls 292 = ~[0.00343221 0]
newControls 293 = ~[0.00346511 0]
newControls 294 = ~[0.00349806 0]
newControls 295 = ~[0.00353107 0]
newControls 296 = ~[0.00356414 0]
newControls 297 = ~[0.00359727 0]
newControls 298 = ~[0.00363047 0]
newControls 299 = ~[0.00366372 0]
newControls 300 = ~[0.00369704 0]
newControls 301 = ~[0.00373041 0]
newControls 302 = ~[0.00376386 0]
newControls 303 = ~[0.00379736 0]
newControls 304 = ~[0.00383093 0]
newControls 305 = ~[0.00386456 0]
newControls 306 = ~[0.00389826 0]
newControls 307 = ~[0.00393203 0]
newControls 308 = ~[0.00396586 0]
newControls 309 = ~[0.00399976 0]
newControls 310 = ~[0.00403373 0]
newControls 311 = ~[0.00406777 0]
newControls 312 = ~[0.00410188 0]
newControls 313 = ~[0.00413605 0]
newControls 314 = ~[0.0041703 0]
newControls 315 = ~[0.00420462 0]
newControls 316 = ~[0.00423901 0]
newControls 317 = ~[0.00427347 0]
newControls 318 = ~[0.00430801 0]
newControls 319 = ~[0.00434262 0]
newControls 320 = ~[0.00437731 0]
newControls 321 = ~[0.00441207 0]
newControls 322 = ~[0.0044469 0]
newControls 323 = ~[0.00448181 0]
newControls 324 = ~[0.0045168 0]
newControls 325 = ~[0.00455187 0]
newControls 326 = ~[0.00458701 0]
newControls 327 = ~[0.00462224 0]
newControls 328 = ~[0.00465754 0]
newControls 329 = ~[0.00469293 0]
newControls 330 = ~[0.00472839 0]
newControls 331 = ~[0.00476394 0]
newControls 332 = ~[0.00479957 0]
newControls 333 = ~[0.00483528 0]
newControls 334 = ~[0.00487108 0]
newControls 335 = ~[0.00490696 0]
newControls 336 = ~[0.00494293 0]
newControls 337 = ~[0.00497898 0]
newControls 338 = ~[0.00501512 0]
newControls 339 = ~[0.00505134 0]
newControls 340 = ~[0.00508766 0]
newControls 341 = ~[0.00512406 0]
newControls 342 = ~[0.00516055 0]
newControls 343 = ~[0.00519713 0]
newControls 344 = ~[0.00523381 0]
newControls 345 = ~[0.00527057 0]
newControls 346 = ~[0.00530742 0]
newControls 347 = ~[0.00534437 0]
newControls 348 = ~[0.00538142 0]
newControls 349 = ~[0.00541855 0]
newControls 350 = ~[0.00545578 0]
newControls 351 = ~[0.00549311 0]
newControls 352 = ~[0.00553053 0]
newControls 353 = ~[0.00556805 0]
newControls 354 = ~[0.00560567 0]
newControls 355 = ~[0.00564339 0]
newControls 356 = ~[0.00568121 0]
newControls 357 = ~[0.00571912 0]
newControls 358 = ~[0.00575714 0]
newControls 359 = ~[0.00579526 0]
newControls 360 = ~[0.00583348 0]
newControls 361 = ~[0.0058718 0]
newControls 362 = ~[0.00591023 0]
newControls 363 = ~[0.00594876 0]
newControls 364 = ~[0.0059874 0]
newControls 365 = ~[0.00602614 0]
newControls 366 = ~[0.00606499 0]
newControls 367 = ~[0.00610395 0]
newControls 368 = ~[0.00614301 0]
newControls 369 = ~[0.00618219 0]
newControls 370 = ~[0.00622147 0]
newControls 371 = ~[0.00626087 0]
newControls 372 = ~[0.00630037 0]
newControls 373 = ~[0.00633999 0]
newControls 374 = ~[0.00637972 0]
newControls 375 = ~[0.00641957 0]
newControls 376 = ~[0.00645953 0]
newControls 377 = ~[0.0064996 0]
newControls 378 = ~[0.00653979 0]
newControls 379 = ~[0.0065801 0]
newControls 380 = ~[0.00662052 0]
newControls 381 = ~[0.00666106 0]
newControls 382 = ~[0.00670172 0]
newControls 383 = ~[0.00674251 0]
newControls 384 = ~[0.00678341 0]
newControls 385 = ~[0.00682443 0]
newControls 386 = ~[0.00686558 0]
newControls 387 = ~[0.00690685 0]
newControls 388 = ~[0.00694824 0]
newControls 389 = ~[0.00698976 0]
newControls 390 = ~[0.0070314 0]
newControls 391 = ~[0.00707317 0]
newControls 392 = ~[0.00711507 0]
newControls 393 = ~[0.00715709 0]
newControls 394 = ~[0.00719925 0]
newControls 395 = ~[0.00724153 0]
newControls 396 = ~[0.00728394 0]
newControls 397 = ~[0.00732649 0]
newControls 398 = ~[0.00736916 0]
newControls 399 = ~[0.00741198 0]
newControls 400 = ~[0.00745492 0]
newControls 401 = ~[0.007498 0]
newControls 402 = ~[0.00754121 0]
newControls 403 = ~[0.00758456 0]
newControls 404 = ~[0.00762805 0]
newControls 405 = ~[0.00767168 0]
newControls 406 = ~[0.00771544 0]
newControls 407 = ~[0.00775935 0]
newControls 408 = ~[0.00780339 0]
newControls 409 = ~[0.00784758 0]
newControls 410 = ~[0.00789191 0]
newControls 411 = ~[0.00793638 0]
newControls 412 = ~[0.007981 0]
newControls 413 = ~[0.00802576 0]
newControls 414 = ~[0.00807067 0]
newControls 415 = ~[0.00811572 0]
newControls 416 = ~[0.00816092 0]
newControls 417 = ~[0.00820627 0]
newControls 418 = ~[0.00825177 0]
newControls 419 = ~[0.00829742 0]
newControls 420 = ~[0.00834323 0]
newControls 421 = ~[0.00838918 0]
newControls 422 = ~[0.00843529 0]
newControls 423 = ~[0.00848155 0]
newControls 424 = ~[0.00852797 0]
newControls 425 = ~[0.00857454 0]
newControls 426 = ~[0.00862127 0]
newControls 427 = ~[0.00866815 0]
newControls 428 = ~[0.0087152 0]
newControls 429 = ~[0.0087624 0]
newControls 430 = ~[0.00880977 0]
newControls 431 = ~[0.00885729 0]
newControls 432 = ~[0.00890498 0]
newControls 433 = ~[0.00895283 0]
newControls 434 = ~[0.00900085 0]
newControls 435 = ~[0.00904903 0]
newControls 436 = ~[0.00909738 0]
newControls 437 = ~[0.00914589 0]
newControls 438 = ~[0.00919457 0]
newControls 439 = ~[0.00924343 0]
newControls 440 = ~[0.00929245 0]
newControls 441 = ~[0.00934164 0]
newControls 442 = ~[0.009391 0]
newControls 443 = ~[0.00944054 0]
newControls 444 = ~[0.00949025 0]
newControls 445 = ~[0.00954014 0]
newControls 446 = ~[0.0095902 0]
newControls 447 = ~[0.00964044 0]
newControls 448 = ~[0.00969085 0]
newControls 449 = ~[0.00974145 0]
newControls 450 = ~[0.00979222 0]
newControls 451 = ~[0.00984318 0]
newControls 452 = ~[0.00989431 0]
newControls 453 = ~[0.00994563 0]
newControls 454 = ~[0.00999714 0]
newControls 455 = ~[0.0100488 0]
newControls 456 = ~[0.0101007 0]
newControls 457 = ~[0.0101528 0]
newControls 458 = ~[0.010205 0]
newControls 459 = ~[0.0102574 0]
newControls 460 = ~[0.0103101 0]
newControls 461 = ~[0.0103629 0]
newControls 462 = ~[0.0104159 0]
newControls 463 = ~[0.0104691 0]
newControls 464 = ~[0.0105225 0]
newControls 465 = ~[0.0105761 0]
newControls 466 = ~[0.0106299 0]
newControls 467 = ~[0.0106839 0]
newControls 468 = ~[0.0107381 0]
newControls 469 = ~[0.0107924 0]
newControls 470 = ~[0.010847 0]
newControls 471 = ~[0.0109018 0]
newControls 472 = ~[0.0109568 0]
newControls 473 = ~[0.011012 0]
newControls 474 = ~[0.0110674 0]
newControls 475 = ~[0.011123 0]
newControls 476 = ~[0.0111788 0]
newControls 477 = ~[0.0112348 0]
newControls 478 = ~[0.011291 0]
newControls 479 = ~[0.0113475 0]
newControls 480 = ~[0.0114041 0]
newControls 481 = ~[0.011461 0]
newControls 482 = ~[0.0115181 0]
newControls 483 = ~[0.0115754 0]
newControls 484 = ~[0.0116329 0]
newControls 485 = ~[0.0116906 0]
newControls 486 = ~[0.0117485 0]
newControls 487 = ~[0.0118067 0]
newControls 488 = ~[0.0118651 0]
newControls 489 = ~[0.0119237 0]
newControls 490 = ~[0.0119825 0]
newControls 491 = ~[0.0120415 0]
newControls 492 = ~[0.0121008 0]
newControls 493 = ~[0.0121603 0]
newControls 494 = ~[0.01222 0]
newControls 495 = ~[0.01228 0]
newControls 496 = ~[0.0123402 0]
newControls 497 = ~[0.0124006 0]
newControls 498 = ~[0.0124612 0]
newControls 499 = ~[0.0125221 0]
newControls 500 = ~[0.0125832 0]
newControls 501 = ~[0.0126446 0]
newControls 502 = ~[0.0127062 0]
newControls 503 = ~[0.012768 0]
newControls 504 = ~[0.01283 0]
newControls 505 = ~[0.0128923 0]
newControls 506 = ~[0.0129549 0]
newControls 507 = ~[0.0130177 0]
newControls 508 = ~[0.0130807 0]
newControls 509 = ~[0.013144 0]
newControls 510 = ~[0.0132075 0]
newControls 511 = ~[0.0132713 0]
newControls 512 = ~[0.0133353 0]
newControls 513 = ~[0.0133996 0]
newControls 514 = ~[0.0134641 0]
newControls 515 = ~[0.0135289 0]
newControls 516 = ~[0.0135939 0]
newControls 517 = ~[0.0136592 0]
newControls 518 = ~[0.0137247 0]
newControls 519 = ~[0.0137905 0]
newControls 520 = ~[0.0138566 0]
newControls 521 = ~[0.0139229 0]
newControls 522 = ~[0.0139895 0]
newControls 523 = ~[0.0140563 0]
newControls 524 = ~[0.0141234 0]
newControls 525 = ~[0.0141908 0]
newControls 526 = ~[0.0142584 0]
newControls 527 = ~[0.0143263 0]
newControls 528 = ~[0.0143945 0]
newControls 529 = ~[0.014463 0]
newControls 530 = ~[0.0145317 0]
newControls 531 = ~[0.0146007 0]
newControls 532 = ~[0.0146699 0]
newControls 533 = ~[0.0147395 0]
newControls 534 = ~[0.0148093 0]
newControls 535 = ~[0.0148794 0]
newControls 536 = ~[0.0149498 0]
newControls 537 = ~[0.0150204 0]
newControls 538 = ~[0.0150914 0]
newControls 539 = ~[0.0151626 0]
newControls 540 = ~[0.0152341 0]
newControls 541 = ~[0.0153059 0]
newControls 542 = ~[0.015378 0]
newControls 543 = ~[0.0154504 0]
newControls 544 = ~[0.015523 0]
newControls 545 = ~[0.015596 0]
newControls 546 = ~[0.0156693 0]
newControls 547 = ~[0.0157428 0]
newControls 548 = ~[0.0158167 0]
newControls 549 = ~[0.0158908 0]
newControls 550 = ~[0.0159652 0]
newControls 551 = ~[0.01604 0]
newControls 552 = ~[0.016115 0]
newControls 553 = ~[0.0161904 0]
newControls 554 = ~[0.016266 0]
newControls 555 = ~[0.016342 0]
newControls 556 = ~[0.0164183 0]
newControls 557 = ~[0.0164949 0]
newControls 558 = ~[0.0165718 0]
newControls 559 = ~[0.016649 0]
newControls 560 = ~[0.0167265 0]
newControls 561 = ~[0.0168043 0]
newControls 562 = ~[0.0168825 0]
newControls 563 = ~[0.0169609 0]
newControls 564 = ~[0.0170397 0]
newControls 565 = ~[0.0171188 0]
newControls 566 = ~[0.0171983 0]
newControls 567 = ~[0.017278 0]
newControls 568 = ~[0.0173581 0]
newControls 569 = ~[0.0174385 0]
newControls 570 = ~[0.0175193 0]
newControls 571 = ~[0.0176003 0]
newControls 572 = ~[0.0176817 0]
newControls 573 = ~[0.0177635 0]
newControls 574 = ~[0.0178455 0]
newControls 575 = ~[0.017928 0]
newControls 576 = ~[0.0180107 0]
newControls 577 = ~[0.0180938 0]
newControls 578 = ~[0.0181772 0]
newControls 579 = ~[0.018261 0]
newControls 580 = ~[0.0183451 0]
newControls 581 = ~[0.0184296 0]
newControls 582 = ~[0.0185144 0]
newControls 583 = ~[0.0185995 0]
newControls 584 = ~[0.018685 0]
newControls 585 = ~[0.0187709 0]
newControls 586 = ~[0.0188571 0]
newControls 587 = ~[0.0189437 0]
newControls 588 = ~[0.0190306 0]
newControls 589 = ~[0.0191179 0]
newControls 590 = ~[0.0192056 0]
newControls 591 = ~[0.0192936 0]
newControls 592 = ~[0.019382 0]
newControls 593 = ~[0.0194707 0]
newControls 594 = ~[0.0195598 0]
newControls 595 = ~[0.0196493 0]
newControls 596 = ~[0.0197391 0]
newControls 597 = ~[0.0198294 0]
newControls 598 = ~[0.0199199 0]
newControls 599 = ~[0.0200109 0]
newControls 600 = ~[0.0201023 0]
newControls 601 = ~[0.020194 0]
newControls 602 = ~[0.0202861 0]
newControls 603 = ~[0.0203786 0]
newControls 604 = ~[0.0204715 0]
newControls 605 = ~[0.0205647 0]
newControls 606 = ~[0.0206584 0]
newControls 607 = ~[0.0207524 0]
newControls 608 = ~[0.0208468 0]
newControls 609 = ~[0.0209417 0]
newControls 610 = ~[0.0210369 0]
newControls 611 = ~[0.0211325 0]
newControls 612 = ~[0.0212285 0]
newControls 613 = ~[0.0213249 0]
newControls 614 = ~[0.0214217 0]
newControls 615 = ~[0.0215189 0]
newControls 616 = ~[0.0216166 0]
newControls 617 = ~[0.0217146 0]
newControls 618 = ~[0.021813 0]
newControls 619 = ~[0.0219119 0]
newControls 620 = ~[0.0220111 0]
newControls 621 = ~[0.0221108 0]
newControls 622 = ~[0.0222109 0]
newControls 623 = ~[0.0223114 0]
newControls 624 = ~[0.0224123 0]
newControls 625 = ~[0.0225137 0]
newControls 626 = ~[0.0226155 0]
newControls 627 = ~[0.0227177 0]
newControls 628 = ~[0.0228203 0]
newControls 629 = ~[0.0229233 0]
newControls 630 = ~[0.0230268 0]
newControls 631 = ~[0.0231307 0]
newControls 632 = ~[0.0232351 0]
newControls 633 = ~[0.0233399 0]
newControls 634 = ~[0.0234451 0]
newControls 635 = ~[0.0235508 0]
newControls 636 = ~[0.0236569 0]
newControls 637 = ~[0.0237634 0]
newControls 638 = ~[0.0238704 0]
newControls 639 = ~[0.0239779 0]
newControls 640 = ~[0.0240858 0]
newControls 641 = ~[0.0241941 0]
newControls 642 = ~[0.024303 0]
newControls 643 = ~[0.0244122 0]
newControls 644 = ~[0.0245219 0]
newControls 645 = ~[0.0246321 0]
newControls 646 = ~[0.0247427 0]
newControls 647 = ~[0.0248539 0]
newControls 648 = ~[0.0249654 0]
newControls 649 = ~[0.0250775 0]
newControls 650 = ~[0.02519 0]
newControls 651 = ~[0.0253029 0]
newControls 652 = ~[0.0254164 0]
newControls 653 = ~[0.0255303 0]
newControls 654 = ~[0.0256447 0]
newControls 655 = ~[0.0257596 0]
newControls 656 = ~[0.025875 0]
newControls 657 = ~[0.0259908 0]
newControls 658 = ~[0.0261072 0]
newControls 659 = ~[0.026224 0]
newControls 660 = ~[0.0263413 0]
newControls 661 = ~[0.0264591 0]
newControls 662 = ~[0.0265774 0]
newControls 663 = ~[0.0266962 0]
newControls 664 = ~[0.0268155 0]
newControls 665 = ~[0.0269353 0]
newControls 666 = ~[0.0270556 0]
newControls 667 = ~[0.0271764 0]
newControls 668 = ~[0.0272977 0]
newControls 669 = ~[0.0274195 0]
newControls 670 = ~[0.0275418 0]
newControls 671 = ~[0.0276647 0]
newControls 672 = ~[0.027788 0]
newControls 673 = ~[0.0279119 0]
newControls 674 = ~[0.0280363 0]
newControls 675 = ~[0.0281612 0]
newControls 676 = ~[0.0282866 0]
newControls 677 = ~[0.0284126 0]
newControls 678 = ~[0.0285391 0]
newControls 679 = ~[0.0286661 0]
newControls 680 = ~[0.0287937 0]
newControls 681 = ~[0.0289218 0]
newControls 682 = ~[0.0290504 0]
newControls 683 = ~[0.0291795 0]
newControls 684 = ~[0.0293092 0]
newControls 685 = ~[0.0294395 0]
newControls 686 = ~[0.0295703 0]
newControls 687 = ~[0.0297016 0]
newControls 688 = ~[0.0298335 0]
newControls 689 = ~[0.0299659 0]
newControls 690 = ~[0.0300989 0]
newControls 691 = ~[0.0302325 0]
newControls 692 = ~[0.0303666 0]
newControls 693 = ~[0.0305013 0]
newControls 694 = ~[0.0306365 0]
newControls 695 = ~[0.0307723 0]
newControls 696 = ~[0.0309087 0]
newControls 697 = ~[0.0310456 0]
newControls 698 = ~[0.0311831 0]
newControls 699 = ~[0.0313212 0]
newControls 700 = ~[0.0314599 0]
newControls 701 = ~[0.0315991 0]
newControls 702 = ~[0.0317389 0]
newControls 703 = ~[0.0318793 0]
newControls 704 = ~[0.0320203 0]
newControls 705 = ~[0.0321619 0]
newControls 706 = ~[0.0323041 0]
newControls 707 = ~[0.0324468 0]
newControls 708 = ~[0.0325902 0]
newControls 709 = ~[0.0327342 0]
newControls 710 = ~[0.0328787 0]
newControls 711 = ~[0.0330239 0]
newControls 712 = ~[0.0331696 0]
newControls 713 = ~[0.033316 0]
newControls 714 = ~[0.033463 0]
newControls 715 = ~[0.0336106 0]
newControls 716 = ~[0.0337588 0]
newControls 717 = ~[0.0339076 0]
newControls 718 = ~[0.0340571 0]
newControls 719 = ~[0.0342071 0]
newControls 720 = ~[0.0343578 0]
newControls 721 = ~[0.0345091 0]
newControls 722 = ~[0.0346611 0]
newControls 723 = ~[0.0348136 0]
newControls 724 = ~[0.0349668 0]
newControls 725 = ~[0.0351207 0]
newControls 726 = ~[0.0352751 0]
newControls 727 = ~[0.0354303 0]
newControls 728 = ~[0.035586 0]
newControls 729 = ~[0.0357424 0]
newControls 730 = ~[0.0358995 0]
newControls 731 = ~[0.0360572 0]
newControls 732 = ~[0.0362155 0]
newControls 733 = ~[0.0363745 0]
newControls 734 = ~[0.0365342 0]
newControls 735 = ~[0.0366945 0]
newControls 736 = ~[0.0368555 0]
newControls 737 = ~[0.0370172 0]
newControls 738 = ~[0.0371795 0]
newControls 739 = ~[0.0373425 0]
newControls 740 = ~[0.0375061 0]
newControls 741 = ~[0.0376705 0]
newControls 742 = ~[0.0378355 0]
newControls 743 = ~[0.0380012 0]
newControls 744 = ~[0.0381676 0]
newControls 745 = ~[0.0383346 0]
newControls 746 = ~[0.0385024 0]
newControls 747 = ~[0.0386708 0]
newControls 748 = ~[0.0388399 0]
newControls 749 = ~[0.0390097 0]
newControls 750 = ~[0.0391802 0]
newControls 751 = ~[0.0393515 0]
newControls 752 = ~[0.0395234 0]
newControls 753 = ~[0.039696 0]
newControls 754 = ~[0.0398693 0]
newControls 755 = ~[0.0400433 0]
newControls 756 = ~[0.0402181 0]
newControls 757 = ~[0.0403936 0]
newControls 758 = ~[0.0405697 0]
newControls 759 = ~[0.0407466 0]
newControls 760 = ~[0.0409242 0]
newControls 761 = ~[0.0411026 0]
newControls 762 = ~[0.0412816 0]
newControls 763 = ~[0.0414614 0]
newControls 764 = ~[0.041642 0]
newControls 765 = ~[0.0418232 0]
newControls 766 = ~[0.0420052 0]
newControls 767 = ~[0.042188 0]
newControls 768 = ~[0.0423714 0]
newControls 769 = ~[0.0425556 0]
newControls 770 = ~[0.0427406 0]
newControls 771 = ~[0.0429263 0]
newControls 772 = ~[0.0431128 0]
newControls 773 = ~[0.0433 0]
newControls 774 = ~[0.043488 0]
newControls 775 = ~[0.0436767 0]
newControls 776 = ~[0.0438662 0]
newControls 777 = ~[0.0440565 0]
newControls 778 = ~[0.0442475 0]
newControls 779 = ~[0.0444393 0]
newControls 780 = ~[0.0446318 0]
newControls 781 = ~[0.0448252 0]
newControls 782 = ~[0.0450193 0]
newControls 783 = ~[0.0452142 0]
newControls 784 = ~[0.0454099 0]
newControls 785 = ~[0.0456063 0]
newControls 786 = ~[0.0458035 0]
newControls 787 = ~[0.0460016 0]
newControls 788 = ~[0.0462004 0]
newControls 789 = ~[0.0464 0]
newControls 790 = ~[0.0466004 0]
newControls 791 = ~[0.0468016 0]
newControls 792 = ~[0.0470036 0]
newControls 793 = ~[0.0472064 0]
newControls 794 = ~[0.04741 0]
newControls 795 = ~[0.0476145 0]
newControls 796 = ~[0.0478197 0]
newControls 797 = ~[0.0480257 0]
newControls 798 = ~[0.0482326 0]
newControls 799 = ~[0.0484403 0]
newControls 800 = ~[0.0486488 0]
newControls 801 = ~[0.0488581 0]
newControls 802 = ~[0.0490682 0]
newControls 803 = ~[0.0492792 0]
newControls 804 = ~[0.049491 0]
newControls 805 = ~[0.0497036 0]
newControls 806 = ~[0.0499171 0]
newControls 807 = ~[0.0501314 0]
newControls 808 = ~[0.0503465 0]
newControls 809 = ~[0.0505625 0]
newControls 810 = ~[0.0507793 0]
newControls 811 = ~[0.0509969 0]
newControls 812 = ~[0.0512155 0]
newControls 813 = ~[0.0514348 0]
newControls 814 = ~[0.051655 0]
newControls 815 = ~[0.0518761 0]
newControls 816 = ~[0.052098 0]
newControls 817 = ~[0.0523208 0]
newControls 818 = ~[0.0525445 0]
newControls 819 = ~[0.052769 0]
newControls 820 = ~[0.0529943 0]
newControls 821 = ~[0.0532206 0]
newControls 822 = ~[0.0534477 0]
newControls 823 = ~[0.0536757 0]
newControls 824 = ~[0.0539045 0]
newControls 825 = ~[0.0541343 0]
newControls 826 = ~[0.0543649 0]
newControls 827 = ~[0.0545964 0]
newControls 828 = ~[0.0548288 0]
newControls 829 = ~[0.055062 0]
newControls 830 = ~[0.0552962 0]
newControls 831 = ~[0.0555312 0]
newControls 832 = ~[0.0557672 0]
newControls 833 = ~[0.056004 0]
newControls 834 = ~[0.0562417 0]
newControls 835 = ~[0.0564803 0]
newControls 836 = ~[0.0567198 0]
newControls 837 = ~[0.0569603 0]
newControls 838 = ~[0.0572016 0]
newControls 839 = ~[0.0574438 0]
newControls 840 = ~[0.0576869 0]
newControls 841 = ~[0.057931 0]
newControls 842 = ~[0.0581759 0]
newControls 843 = ~[0.0584218 0]
newControls 844 = ~[0.0586686 0]
newControls 845 = ~[0.0589163 0]
newControls 846 = ~[0.0591649 0]
newControls 847 = ~[0.0594145 0]
newControls 848 = ~[0.0596649 0]
newControls 849 = ~[0.0599163 0]
newControls 850 = ~[0.0601686 0]
newControls 851 = ~[0.0604219 0]
newControls 852 = ~[0.060676 0]
newControls 853 = ~[0.0609311 0]
newControls 854 = ~[0.0611872 0]
newControls 855 = ~[0.0614441 0]
newControls 856 = ~[0.061702 0]
newControls 857 = ~[0.0619609 0]
newControls 858 = ~[0.0622206 0]
newControls 859 = ~[0.0624814 0]
newControls 860 = ~[0.062743 0]
newControls 861 = ~[0.0630056 0]
newControls 862 = ~[0.0632692 0]
newControls 863 = ~[0.0635337 0]
newControls 864 = ~[0.0637991 0]
newControls 865 = ~[0.0640655 0]
newControls 866 = ~[0.0643328 0]
newControls 867 = ~[0.0646011 0]
newControls 868 = ~[0.0648704 0]
newControls 869 = ~[0.0651406 0]
newControls 870 = ~[0.0654117 0]
newControls 871 = ~[0.0656839 0]
newControls 872 = ~[0.0659569 0]
newControls 873 = ~[0.066231 0]
newControls 874 = ~[0.066506 0]
newControls 875 = ~[0.0667819 0]
newControls 876 = ~[0.0670588 0]
newControls 877 = ~[0.0673367 0]
newControls 878 = ~[0.0676156 0]
newControls 879 = ~[0.0678954 0]
newControls 880 = ~[0.0681762 0]
newControls 881 = ~[0.0684579 0]
newControls 882 = ~[0.0687406 0]
newControls 883 = ~[0.0690243 0]
newControls 884 = ~[0.069309 0]
newControls 885 = ~[0.0695946 0]
newControls 886 = ~[0.0698812 0]
newControls 887 = ~[0.0701688 0]
newControls 888 = ~[0.0704573 0]
newControls 889 = ~[0.0707468 0]
newControls 890 = ~[0.0710373 0]
newControls 891 = ~[0.0713288 0]
newControls 892 = ~[0.0716212 0]
newControls 893 = ~[0.0719146 0]
newControls 894 = ~[0.072209 0]
newControls 895 = ~[0.0725044 0]
newControls 896 = ~[0.0728008 0]
newControls 897 = ~[0.0730981 0]
newControls 898 = ~[0.0733964 0]
newControls 899 = ~[0.0736957 0]
newControls 900 = ~[0.0739959 0]
newControls 901 = ~[0.0742972 0]
newControls 902 = ~[0.0745994 0]
newControls 903 = ~[0.0749026 0]
newControls 904 = ~[0.0752068 0]
newControls 905 = ~[0.0755119 0]
newControls 906 = ~[0.0758181 0]
newControls 907 = ~[0.0761252 0]
newControls 908 = ~[0.0764333 0]
newControls 909 = ~[0.0767423 0]
newControls 910 = ~[0.0770524 0]
newControls 911 = ~[0.0773634 0]
newControls 912 = ~[0.0776754 0]
newControls 913 = ~[0.0779884 0]
newControls 914 = ~[0.0783023 0]
newControls 915 = ~[0.0786173 0]
newControls 916 = ~[0.0789332 0]
newControls 917 = ~[0.0792501 0]
newControls 918 = ~[0.0795679 0]
newControls 919 = ~[0.0798867 0]
newControls 920 = ~[0.0802065 0]
newControls 921 = ~[0.0805273 0]
newControls 922 = ~[0.0808491 0]
newControls 923 = ~[0.0811718 0]
newControls 924 = ~[0.0814955 0]
newControls 925 = ~[0.0818201 0]
newControls 926 = ~[0.0821458 0]
newControls 927 = ~[0.0824723 0]
newControls 928 = ~[0.0827999 0]
newControls 929 = ~[0.0831284 0]
newControls 930 = ~[0.0834579 0]
newControls 931 = ~[0.0837883 0]
newControls 932 = ~[0.0841197 0]
newControls 933 = ~[0.0844521 0]
newControls 934 = ~[0.0847854 0]
newControls 935 = ~[0.0851197 0]
newControls 936 = ~[0.0854549 0]
newControls 937 = ~[0.0857911 0]
newControls 938 = ~[0.0861282 0]
newControls 939 = ~[0.0864663 0]
newControls 940 = ~[0.0868053 0]
newControls 941 = ~[0.0871453 0]
newControls 942 = ~[0.0874862 0]
newControls 943 = ~[0.0878281 0]
newControls 944 = ~[0.0881709 0]
newControls 945 = ~[0.0885146 0]
newControls 946 = ~[0.0888592 0]
newControls 947 = ~[0.0892048 0]
newControls 948 = ~[0.0895514 0]
newControls 949 = ~[0.0898988 0]
newControls 950 = ~[0.0902472 0]
newControls 951 = ~[0.0905965 0]
newControls 952 = ~[0.0909467 0]
newControls 953 = ~[0.0912978 0]
newControls 954 = ~[0.0916499 0]
newControls 955 = ~[0.0920028 0]
newControls 956 = ~[0.0923567 0]
newControls 957 = ~[0.0927115 0]
newControls 958 = ~[0.0930672 0]
newControls 959 = ~[0.0934237 0]
newControls 960 = ~[0.0937812 0]
newControls 961 = ~[0.0941396 0]
newControls 962 = ~[0.0944988 0]
newControls 963 = ~[0.0948589 0]
newControls 964 = ~[0.09522 0]
newControls 965 = ~[0.0955819 0]
newControls 966 = ~[0.0959446 0]
newControls 967 = ~[0.0963083 0]
newControls 968 = ~[0.0966728 0]
newControls 969 = ~[0.0970381 0]
newControls 970 = ~[0.0974044 0]
newControls 971 = ~[0.0977715 0]
newControls 972 = ~[0.0981394 0]
newControls 973 = ~[0.0985082 0]
newControls 974 = ~[0.0988778 0]
newControls 975 = ~[0.0992483 0]
newControls 976 = ~[0.0996196 0]
newControls 977 = ~[0.0999917 0]
newControls 978 = ~[0.100365 0]
newControls 979 = ~[0.100738 0]
newControls 980 = ~[0.101113 0]
newControls 981 = ~[0.101489 0]
newControls 982 = ~[0.101865 0]
newControls 983 = ~[0.102242 0]
newControls 984 = ~[0.10262 0]
newControls 985 = ~[0.102998 0]
newControls 986 = ~[0.103378 0]
newControls 987 = ~[0.103758 0]
newControls 988 = ~[0.104139 0]
newControls 989 = ~[0.10452 0]
newControls 990 = ~[0.104903 0]
newControls 991 = ~[0.105286 0]
newControls 992 = ~[0.10567 0]
newControls 993 = ~[0.106055 0]
newControls 994 = ~[0.10644 0]
newControls 995 = ~[0.106827 0]
newControls 996 = ~[0.107214 0]
newControls 997 = ~[0.107601 0]
newControls 998 = ~[0.10799 0]
newControls 999 = ~[0.108379 0]
newControls 1000 = ~[0.108768 0]
newControls 1001 = ~[0.109159 0]
newControls 1002 = ~[0.10955 0]
newControls 1003 = ~[0.109942 0]
newControls 1004 = ~[0.110335 0]
newControls 1005 = ~[0.110728 0]
newControls 1006 = ~[0.111122 0]
newControls 1007 = ~[0.111516 0]
newControls 1008 = ~[0.111912 0]
newControls 1009 = ~[0.112307 0]
newControls 1010 = ~[0.112704 0]
newControls 1011 = ~[0.113101 0]
newControls 1012 = ~[0.113499 0]
newControls 1013 = ~[0.113897 0]
newControls 1014 = ~[0.114296 0]
newControls 1015 = ~[0.114696 0]
newControls 1016 = ~[0.115096 0]
newControls 1017 = ~[0.115496 0]
newControls 1018 = ~[0.115898 0]
newControls 1019 = ~[0.1163 0]
newControls 1020 = ~[0.116702 0]
newControls 1021 = ~[0.117105 0]
newControls 1022 = ~[0.117508 0]
newControls 1023 = ~[0.117912 0]
newControls 1024 = ~[0.118317 0]
newControls 1025 = ~[0.118722 0]
newControls 1026 = ~[0.119128 0]
newControls 1027 = ~[0.119534 0]
newControls 1028 = ~[0.11994 0]
newControls 1029 = ~[0.120347 0]
newControls 1030 = ~[0.120755 0]
newControls 1031 = ~[0.121163 0]
newControls 1032 = ~[0.121571 0]
newControls 1033 = ~[0.12198 0]
newControls 1034 = ~[0.122389 0]
newControls 1035 = ~[0.122799 0]
newControls 1036 = ~[0.123209 0]
newControls 1037 = ~[0.12362 0]
newControls 1038 = ~[0.124031 0]
newControls 1039 = ~[0.124442 0]
newControls 1040 = ~[0.124854 0]
newControls 1041 = ~[0.125266 0]
newControls 1042 = ~[0.125678 0]
newControls 1043 = ~[0.126091 0]
newControls 1044 = ~[0.126504 0]
newControls 1045 = ~[0.126917 0]
newControls 1046 = ~[0.127331 0]
newControls 1047 = ~[0.127745 0]
newControls 1048 = ~[0.128159 0]
newControls 1049 = ~[0.128574 0]
newControls 1050 = ~[0.128989 0]
newControls 1051 = ~[0.129404 0]
newControls 1052 = ~[0.129819 0]
newControls 1053 = ~[0.130234 0]
newControls 1054 = ~[0.13065 0]
newControls 1055 = ~[0.131066 0]
newControls 1056 = ~[0.131482 0]
newControls 1057 = ~[0.131899 0]
newControls 1058 = ~[0.132315 0]
newControls 1059 = ~[0.132732 0]
newControls 1060 = ~[0.133148 0]
newControls 1061 = ~[0.133565 0]
newControls 1062 = ~[0.133982 0]
newControls 1063 = ~[0.134399 0]
newControls 1064 = ~[0.134817 0]
newControls 1065 = ~[0.135234 0]
newControls 1066 = ~[0.135651 0]
newControls 1067 = ~[0.136069 0]
newControls 1068 = ~[0.136486 0]
newControls 1069 = ~[0.136904 0]
newControls 1070 = ~[0.137321 0]
newControls 1071 = ~[0.137739 0]
newControls 1072 = ~[0.138156 0]
newControls 1073 = ~[0.138574 0]
newControls 1074 = ~[0.138991 0]
newControls 1075 = ~[0.139408 0]
newControls 1076 = ~[0.139826 0]
newControls 1077 = ~[0.140243 0]
newControls 1078 = ~[0.14066 0]
newControls 1079 = ~[0.141077 0]
newControls 1080 = ~[0.141494 0]
newControls 1081 = ~[0.14191 0]
newControls 1082 = ~[0.142327 0]
newControls 1083 = ~[0.142743 0]
newControls 1084 = ~[0.143159 0]
newControls 1085 = ~[0.143575 0]
newControls 1086 = ~[0.143991 0]
newControls 1087 = ~[0.144407 0]
newControls 1088 = ~[0.144822 0]
newControls 1089 = ~[0.145237 0]
newControls 1090 = ~[0.145651 0]
newControls 1091 = ~[0.146066 0]
newControls 1092 = ~[0.14648 0]
newControls 1093 = ~[0.146894 0]
newControls 1094 = ~[0.147307 0]
newControls 1095 = ~[0.14772 0]
newControls 1096 = ~[0.148132 0]
newControls 1097 = ~[0.148545 0]
newControls 1098 = ~[0.148956 0]
newControls 1099 = ~[0.149368 0]
newControls 1100 = ~[0.149779 0]
newControls 1101 = ~[0.150189 0]
newControls 1102 = ~[0.150599 0]
newControls 1103 = ~[0.151008 0]
newControls 1104 = ~[0.151417 0]
newControls 1105 = ~[0.151825 0]
newControls 1106 = ~[0.152233 0]
newControls 1107 = ~[0.15264 0]
newControls 1108 = ~[0.153047 0]
newControls 1109 = ~[0.153453 0]
newControls 1110 = ~[0.153858 0]
newControls 1111 = ~[0.154262 0]
newControls 1112 = ~[0.154666 0]
newControls 1113 = ~[0.15507 0]
newControls 1114 = ~[0.155472 0]
newControls 1115 = ~[0.155874 0]
newControls 1116 = ~[0.156275 0]
newControls 1117 = ~[0.156675 0]
newControls 1118 = ~[0.157074 0]
newControls 1119 = ~[0.157473 0]
newControls 1120 = ~[0.157871 0]
newControls 1121 = ~[0.158267 0]
newControls 1122 = ~[0.158663 0]
newControls 1123 = ~[0.159059 0]
newControls 1124 = ~[0.159453 0]
newControls 1125 = ~[0.159846 0]
newControls 1126 = ~[0.160238 0]
newControls 1127 = ~[0.160629 0]
newControls 1128 = ~[0.161019 0]
newControls 1129 = ~[0.161409 0]
newControls 1130 = ~[0.161797 0]
newControls 1131 = ~[0.162184 0]
newControls 1132 = ~[0.16257 0]
newControls 1133 = ~[0.162954 0]
newControls 1134 = ~[0.163338 0]
newControls 1135 = ~[0.16372 0]
newControls 1136 = ~[0.164101 0]
newControls 1137 = ~[0.164481 0]
newControls 1138 = ~[0.16486 0]
newControls 1139 = ~[0.165238 0]
newControls 1140 = ~[0.165614 0]
newControls 1141 = ~[0.165989 0]
newControls 1142 = ~[0.166362 0]
newControls 1143 = ~[0.166734 0]
newControls 1144 = ~[0.167105 0]
newControls 1145 = ~[0.167474 0]
newControls 1146 = ~[0.167842 0]
newControls 1147 = ~[0.168208 0]
newControls 1148 = ~[0.168573 0]
newControls 1149 = ~[0.168936 0]
newControls 1150 = ~[0.169298 0]
newControls 1151 = ~[0.169658 0]
newControls 1152 = ~[0.170017 0]
newControls 1153 = ~[0.170374 0]
newControls 1154 = ~[0.170729 0]
newControls 1155 = ~[0.171083 0]
newControls 1156 = ~[0.171434 0]
newControls 1157 = ~[0.171784 0]
newControls 1158 = ~[0.172133 0]
newControls 1159 = ~[0.172479 0]
newControls 1160 = ~[0.172824 0]
newControls 1161 = ~[0.173166 0]
newControls 1162 = ~[0.173507 0]
newControls 1163 = ~[0.173846 0]
newControls 1164 = ~[0.174183 0]
newControls 1165 = ~[0.174518 0]
newControls 1166 = ~[0.174851 0]
newControls 1167 = ~[0.175182 0]
newControls 1168 = ~[0.175511 0]
newControls 1169 = ~[0.175838 0]
newControls 1170 = ~[0.176162 0]
newControls 1171 = ~[0.176484 0]
newControls 1172 = ~[0.176805 0]
newControls 1173 = ~[0.177123 0]
newControls 1174 = ~[0.177438 0]
newControls 1175 = ~[0.177752 0]
newControls 1176 = ~[0.178063 0]
newControls 1177 = ~[0.178371 0]
newControls 1178 = ~[0.178677 0]
newControls 1179 = ~[0.178981 0]
newControls 1180 = ~[0.179283 0]
newControls 1181 = ~[0.179581 0]
newControls 1182 = ~[0.179878 0]
newControls 1183 = ~[0.180171 0]
newControls 1184 = ~[0.180462 0]
newControls 1185 = ~[0.180751 0]
newControls 1186 = ~[0.181036 0]
newControls 1187 = ~[0.181319 0]
newControls 1188 = ~[0.181599 0]
newControls 1189 = ~[0.181877 0]
newControls 1190 = ~[0.182151 0]
newControls 1191 = ~[0.182423 0]
newControls 1192 = ~[0.182692 0]
newControls 1193 = ~[0.182957 0]
newControls 1194 = ~[0.18322 0]
newControls 1195 = ~[0.18348 0]
newControls 1196 = ~[0.183737 0]
newControls 1197 = ~[0.18399 0]
newControls 1198 = ~[0.18424 0]
newControls 1199 = ~[0.184488 0]
newControls 1200 = ~[0.184732 0]
newControls 1201 = ~[0.184972 0]
newControls 1202 = ~[0.18521 0]
newControls 1203 = ~[0.185444 0]
newControls 1204 = ~[0.185674 0]
newControls 1205 = ~[0.185901 0]
newControls 1206 = ~[0.186125 0]
newControls 1207 = ~[0.186345 0]
newControls 1208 = ~[0.186561 0]
newControls 1209 = ~[0.186774 0]
newControls 1210 = ~[0.186983 0]
newControls 1211 = ~[0.187189 0]
newControls 1212 = ~[0.18739 0]
newControls 1213 = ~[0.187588 0]
newControls 1214 = ~[0.187782 0]
newControls 1215 = ~[0.187972 0]
newControls 1216 = ~[0.188158 0]
newControls 1217 = ~[0.188341 0]
newControls 1218 = ~[0.188519 0]
newControls 1219 = ~[0.188693 0]
newControls 1220 = ~[0.188862 0]
newControls 1221 = ~[0.189028 0]
newControls 1222 = ~[0.189189 0]
newControls 1223 = ~[0.189346 0]
newControls 1224 = ~[0.189499 0]
newControls 1225 = ~[0.189647 0]
newControls 1226 = ~[0.189791 0]
newControls 1227 = ~[0.18993 0]
newControls 1228 = ~[0.190065 0]
newControls 1229 = ~[0.190195 0]
newControls 1230 = ~[0.190321 0]
newControls 1231 = ~[0.190441 0]
newControls 1232 = ~[0.190557 0]
newControls 1233 = ~[0.190668 0]
newControls 1234 = ~[0.190774 0]
newControls 1235 = ~[0.190876 0]
newControls 1236 = ~[0.190972 0]
newControls 1237 = ~[0.191063 0]
newControls 1238 = ~[0.191149 0]
newControls 1239 = ~[0.191229 0]
newControls 1240 = ~[0.191305 0]
newControls 1241 = ~[0.191375 0]
newControls 1242 = ~[0.19144 0]
newControls 1243 = ~[0.191499 0]
newControls 1244 = ~[0.191553 0]
newControls 1245 = ~[0.191601 0]
newControls 1246 = ~[0.191644 0]
newControls 1247 = ~[0.191681 0]
newControls 1248 = ~[0.191712 0]
newControls 1249 = ~[0.191738 0]
newControls 1250 = ~[0.191757 0]
newControls 1251 = ~[0.191771 0]
newControls 1252 = ~[0.191778 0]
newControls 1253 = ~[0.19178 0]
newControls 1254 = ~[0.191775 0]
newControls 1255 = ~[0.191764 0]
newControls 1256 = ~[0.191747 0]
newControls 1257 = ~[0.191723 0]
newControls 1258 = ~[0.191693 0]
newControls 1259 = ~[0.191656 0]
newControls 1260 = ~[0.191613 0]
newControls 1261 = ~[0.191563 0]
newControls 1262 = ~[0.191507 0]
newControls 1263 = ~[0.191443 0]
newControls 1264 = ~[0.191373 0]
newControls 1265 = ~[0.191296 0]
newControls 1266 = ~[0.191211 0]
newControls 1267 = ~[0.19112 0]
newControls 1268 = ~[0.191021 0]
newControls 1269 = ~[0.190915 0]
newControls 1270 = ~[0.190802 0]
newControls 1271 = ~[0.190681 0]
newControls 1272 = ~[0.190553 0]
newControls 1273 = ~[0.190417 0]
newControls 1274 = ~[0.190274 0]
newControls 1275 = ~[0.190123 0]
newControls 1276 = ~[0.189963 0]
newControls 1277 = ~[0.189796 0]
newControls 1278 = ~[0.189621 0]
newControls 1279 = ~[0.189438 0]
newControls 1280 = ~[0.189247 0]
newControls 1281 = ~[0.189047 0]
newControls 1282 = ~[0.188839 0]
newControls 1283 = ~[0.188622 0]
newControls 1284 = ~[0.188397 0]
newControls 1285 = ~[0.188163 0]
newControls 1286 = ~[0.187921 0]
newControls 1287 = ~[0.187669 0]
newControls 1288 = ~[0.187409 0]
newControls 1289 = ~[0.187139 0]
newControls 1290 = ~[0.186861 0]
newControls 1291 = ~[0.186573 0]
newControls 1292 = ~[0.186276 0]
newControls 1293 = ~[0.185969 0]
newControls 1294 = ~[0.185653 0]
newControls 1295 = ~[0.185327 0]
newControls 1296 = ~[0.184992 0]
newControls 1297 = ~[0.184647 0]
newControls 1298 = ~[0.184291 0]
newControls 1299 = ~[0.183926 0]
newControls 1300 = ~[0.18355 0]
newControls 1301 = ~[0.183165 0]
newControls 1302 = ~[0.182768 0]
newControls 1303 = ~[0.182362 0]
newControls 1304 = ~[0.181944 0]
newControls 1305 = ~[0.181516 0]
newControls 1306 = ~[0.181077 0]
newControls 1307 = ~[0.180628 0]
newControls 1308 = ~[0.180167 0]
newControls 1309 = ~[0.179695 0]
newControls 1310 = ~[0.179211 0]
newControls 1311 = ~[0.178717 0]
newControls 1312 = ~[0.17821 0]
newControls 1313 = ~[0.177692 0]
newControls 1314 = ~[0.177162 0]
newControls 1315 = ~[0.176621 0]
newControls 1316 = ~[0.176067 0]
newControls 1317 = ~[0.175501 0]
newControls 1318 = ~[0.174923 0]
newControls 1319 = ~[0.174332 0]
newControls 1320 = ~[0.173729 0]
newControls 1321 = ~[0.173113 0]
newControls 1322 = ~[0.172484 0]
newControls 1323 = ~[0.171843 0]
newControls 1324 = ~[0.171188 0]
newControls 1325 = ~[0.17052 0]
newControls 1326 = ~[0.169839 0]
newControls 1327 = ~[0.169144 0]
newControls 1328 = ~[0.168435 0]
newControls 1329 = ~[0.167713 0]
newControls 1330 = ~[0.166977 0]
newControls 1331 = ~[0.166227 0]
newControls 1332 = ~[0.165462 0]
newControls 1333 = ~[0.164683 0]
newControls 1334 = ~[0.16389 0]
newControls 1335 = ~[0.163082 0]
newControls 1336 = ~[0.162259 0]
newControls 1337 = ~[0.161421 0]
newControls 1338 = ~[0.160569 0]
newControls 1339 = ~[0.1597 0]
newControls 1340 = ~[0.158817 0]
newControls 1341 = ~[0.157917 0]
newControls 1342 = ~[0.157002 0]
newControls 1343 = ~[0.156072 0]
newControls 1344 = ~[0.155125 0]
newControls 1345 = ~[0.154161 0]
newControls 1346 = ~[0.153182 0]
newControls 1347 = ~[0.152185 0]
newControls 1348 = ~[0.151172 0]
newControls 1349 = ~[0.150143 0]
newControls 1350 = ~[0.149096 0]
newControls 1351 = ~[0.148031 0]
newControls 1352 = ~[0.14695 0]
newControls 1353 = ~[0.14585 0]
newControls 1354 = ~[0.144733 0]
newControls 1355 = ~[0.143598 0]
newControls 1356 = ~[0.142445 0]
newControls 1357 = ~[0.141273 0]
newControls 1358 = ~[0.140083 0]
newControls 1359 = ~[0.138874 0]
newControls 1360 = ~[0.137646 0]
newControls 1361 = ~[0.1364 0]
newControls 1362 = ~[0.135133 0]
newControls 1363 = ~[0.133848 0]
newControls 1364 = ~[0.132542 0]
newControls 1365 = ~[0.131217 0]
newControls 1366 = ~[0.129872 0]
newControls 1367 = ~[0.128506 0]
newControls 1368 = ~[0.12712 0]
newControls 1369 = ~[0.125714 0]
newControls 1370 = ~[0.124286 0]
newControls 1371 = ~[0.122837 0]
newControls 1372 = ~[0.121367 0]
newControls 1373 = ~[0.119876 0]
newControls 1374 = ~[0.118363 0]
newControls 1375 = ~[0.116827 0]
newControls 1376 = ~[0.11527 0]
newControls 1377 = ~[0.11369 0]
newControls 1378 = ~[0.112088 0]
newControls 1379 = ~[0.110463 0]
newControls 1380 = ~[0.108815 0]
newControls 1381 = ~[0.107143 0]
newControls 1382 = ~[0.105448 0]
newControls 1383 = ~[0.103729 0]
newControls 1384 = ~[0.101987 0]
newControls 1385 = ~[0.10022 0]
newControls 1386 = ~[0.0984286 0]
newControls 1387 = ~[0.0966126 0]
newControls 1388 = ~[0.0947717 0]
newControls 1389 = ~[0.0929057 0]
newControls 1390 = ~[0.0910143 0]
newControls 1391 = ~[0.0890973 0]
newControls 1392 = ~[0.0871544 0]
newControls 1393 = ~[0.0851853 0]
newControls 1394 = ~[0.0831899 0]
newControls 1395 = ~[0.0811678 0]
newControls 1396 = ~[0.0791189 0]
newControls 1397 = ~[0.0770428 0]
newControls 1398 = ~[0.0749393 0]
newControls 1399 = ~[0.0728082 0]
newControls 1400 = ~[0.0706491 0]
newControls 1401 = ~[0.0684619 0]
newControls 1402 = ~[0.0662462 0]
newControls 1403 = ~[0.0640018 0]
newControls 1404 = ~[0.0617284 0]
newControls 1405 = ~[0.0594257 0]
newControls 1406 = ~[0.0570935 0]
newControls 1407 = ~[0.0547315 0]
newControls 1408 = ~[0.0523394 0]
newControls 1409 = ~[0.049917 0]
newControls 1410 = ~[0.0474639 0]
newControls 1411 = ~[0.0449799 0]
newControls 1412 = ~[0.0424647 0]
newControls 1413 = ~[0.0399179 0]
newControls 1414 = ~[0.0373394 0]
newControls 1415 = ~[0.0347288 0]
newControls 1416 = ~[0.0320859 0]
newControls 1417 = ~[0.0294103 0]
newControls 1418 = ~[0.0267017 0]
newControls 1419 = ~[0.0239598 0]
newControls 1420 = ~[0.0211844 0]
newControls 1421 = ~[0.0183752 0]
newControls 1422 = ~[0.0155318 0]
newControls 1423 = ~[0.0126539 0]
newControls 1424 = ~[0.00974127 0]
newControls 1425 = ~[0.00679355 0]
newControls 1426 = ~[0.00381044 0]
newControls 1427 = ~[0.000791626 0]
newControls 1428 = ~[0 0.00151821]
newControls 1429 = ~[0 0.00359149]
newControls 1430 = ~[0 0.00568902]
newControls 1431 = ~[0 0.00781104]
newControls 1432 = ~[0 0.00995785]
newControls 1433 = ~[0 0.0121297]
newControls 1434 = ~[0 0.0143269]
newControls 1435 = ~[0 0.0165497]
newControls 1436 = ~[0 0.0187983]
newControls 1437 = ~[0 0.0210731]
newControls 1438 = ~[0 0.0233744]
newControls 1439 = ~[0 0.0257024]
newControls 1440 = ~[0 0.0280575]
newControls 1441 = ~[0 0.0304399]
newControls 1442 = ~[0 0.0328499]
newControls 1443 = ~[0 0.0352879]
newControls 1444 = ~[0 0.0377541]
newControls 1445 = ~[0 0.0402488]
newControls 1446 = ~[0 0.0427725]
newControls 1447 = ~[0 0.0453253]
newControls 1448 = ~[0 0.0479076]
newControls 1449 = ~[0 0.0505197]
newControls 1450 = ~[0 0.053162]
newControls 1451 = ~[0 0.0558347]
newControls 1452 = ~[0 0.0585383]
newControls 1453 = ~[0 0.061273]
newControls 1454 = ~[0 0.0640391]
newControls 1455 = ~[0 0.0668371]
newControls 1456 = ~[0 0.0696673]
newControls 1457 = ~[0 0.07253]
newControls 1458 = ~[0 0.0754256]
newControls 1459 = ~[0 0.0783544]
newControls 1460 = ~[0 0.0813168]
newControls 1461 = ~[0 0.0843131]
newControls 1462 = ~[0 0.0873438]
newControls 1463 = ~[0 0.0904092]
newControls 1464 = ~[0 0.0935096]
newControls 1465 = ~[0 0.0966455]
newControls 1466 = ~[0 0.0998172]
newControls 1467 = ~[0 0.103025]
newControls 1468 = ~[0 0.10627]
newControls 1469 = ~[0 0.109551]
newControls 1470 = ~[0 0.11287]
newControls 1471 = ~[0 0.116227]
newControls 1472 = ~[0 0.119622]
newControls 1473 = ~[0 0.123055]
newControls 1474 = ~[0 0.126528]
newControls 1475 = ~[0 0.13004]
newControls 1476 = ~[0 0.133592]
newControls 1477 = ~[0 0.137184]
newControls 1478 = ~[0 0.140817]
newControls 1479 = ~[0 0.144491]
newControls 1480 = ~[0 0.148206]
newControls 1481 = ~[0 0.151964]
newControls 1482 = ~[0 0.155764]
newControls 1483 = ~[0 0.159607]
newControls 1484 = ~[0 0.163493]
newControls 1485 = ~[0 0.167423]
newControls 1486 = ~[0 0.171398]
newControls 1487 = ~[0 0.175417]
newControls 1488 = ~[0 0.179481]
newControls 1489 = ~[0 0.183591]
newControls 1490 = ~[0 0.187748]
newControls 1491 = ~[0 0.191951]
newControls 1492 = ~[0 0.196201]
newControls 1493 = ~[0 0.200498]
newControls 1494 = ~[0 0.204844]
newControls 1495 = ~[0 0.209238]
newControls 1496 = ~[0 0.213681]
newControls 1497 = ~[0 0.218174]
newControls 1498 = ~[0 0.222718]
newControls 1499 = ~[0 0.227311]
newControls 1500 = ~[0 0.231956]
newControls 1501 = ~[0 0.236653]
newControls 1502 = ~[0 0.241401]
newControls 1503 = ~[0 0.246203]
newControls 1504 = ~[0 0.251057]
newControls 1505 = ~[0 0.255966]
newControls 1506 = ~[0 0.260928]
newControls 1507 = ~[0 0.265946]
newControls 1508 = ~[0 0.271019]
newControls 1509 = ~[0 0.276148]
newControls 1510 = ~[0 0.281333]
newControls 1511 = ~[0 0.286576]
newControls 1512 = ~[0 0.291876]
